<svg width="0" height="0" class="hidden">
  <symbol viewBox="0 0 161 186" id="getting-started-a" xmlns="http://www.w3.org/2000/svg" xmlns:xlink="http://www.w3.org/1999/xlink" width="auto" height="auto">
  <g data-name="Group 489" transform="translate(-2668.522 -175.086)"><g data-name="Group 458"><g data-name="Group 457"><path data-name="Path 910" d="M2808.867 316.879l-30.467-55.658h-33.373l-30.472 55.658a4 4 0 0 0 3.509 5.921h87.3a4 4 0 0 0 3.507-5.921z" fill="#ff8e77"/></g><path data-name="Path 911" d="M2771.53 248.679v-54.024h-19.644v54.024l-6.863 12.542h33.377z" fill="#fff"/><path data-name="Path 912" d="M2751.886 194.655v54.024l-37.338 68.2a4 4 0 0 0 3.509 5.921h87.3a4 4 0 0 0 3.508-5.921l-37.337-68.2v-54.024" fill="none" stroke="#000" stroke-linecap="round" stroke-linejoin="round" stroke-width="2"/></g><g data-name="Group 460"><circle data-name="Ellipse 261" cx="3.868" cy="3.868" r="3.868" transform="translate(2755.061 246.727)" fill="#ff8e77"/><image data-name="Rectangle 267" width="10" height="10" transform="translate(2753.522 245.742)" xlink:href="data:image/png;base64,iVBORw0KGgoAAAANSUhEUgAAAAoAAAAKCAYAAACNMs+9AAAAAXNSR0IArs4c6QAAADhlWElmTU0AKgAAAAgAAYdpAAQAAAABAAAAGgAAAAAAAqACAAQAAAABAAAACqADAAQAAAABAAAACgAAAAAYsJrPAAAAHElEQVQYGWP8//8/AzGAiRhFIDWjCvGGFNHBAwDVEgMRZ7+oZgAAAABJRU5ErkJggg==" style="isolation:isolate"/></g><circle data-name="Ellipse 262" cx="3.133" cy="3.133" r="3.133" transform="translate(2763.516 298.863)" fill="#ffbbad"/><circle data-name="Ellipse 263" cx="4.17" cy="4.17" r="4.17" transform="translate(2749.402 270.764)" fill="#ffbbad"/><g data-name="Group 461"><circle data-name="Ellipse 264" cx="2.696" cy="2.696" r="2.696" transform="translate(2760.819 233.505)" fill="#ff8e77"/><image data-name="Rectangle 268" width="8" height="7" transform="translate(2759.522 232.742)" xlink:href="data:image/png;base64,iVBORw0KGgoAAAANSUhEUgAAAAgAAAAHCAYAAAA1WQxeAAAAAXNSR0IArs4c6QAAADhlWElmTU0AKgAAAAgAAYdpAAQAAAABAAAAGgAAAAAAAqACAAQAAAABAAAACKADAAQAAAABAAAABwAAAAA0HM65AAAAF0lEQVQIHWP8//8/Az7AhE8SJDckFAAAs6cDC7xYlSwAAAAASUVORK5CYII=" style="isolation:isolate"/></g><g data-name="Group 258"><g data-name="Group 242"><path data-name="Line 202" fill="none" stroke="#000" stroke-miterlimit="10" stroke-width="3" d="M2693.287 175.086v178.887"/><path data-name="Line 203" fill="none" stroke="#000" stroke-miterlimit="10" stroke-width="3" d="M2683.187 212.689h110.801"/><path data-name="Rectangle 192" d="M2668.522 353.973h161.409v7.545h-161.409z"/></g></g></g>
  </symbol>


  <symbol viewBox="0 0 158 225" id="getting-started-b" xmlns="http://www.w3.org/2000/svg" width="auto" height="auto">
  <g data-name="Group 490" transform="translate(-2673.126 -532.426)">
    <g data-name="Group 459">
      <path data-name="Path 915" d="M2733.1 533.426v70.967a63.1 63.1 0 0 0-7.533 116.936h54.3a63.1 63.1 0 0 0-12.711-118.382v-69.521" fill="#fff"/>
      <path data-name="Path 913" d="M2690.122 656.411a63.147 63.147 0 0 0 35.446 64.918h54.3a63.123 63.123 0 0 0 35.443-64.918z" fill="#30ba78"/>
      <path data-name="Path 915" d="M2733.1 533.426v70.967a63.1 63.1 0 0 0-7.533 116.936h54.3a63.1 63.1 0 0 0-12.711-118.382v-69.521" fill="none" stroke="#000" stroke-linecap="round" stroke-linejoin="round" stroke-width="2"/>
    </g>
    <g data-name="Group 241" fill="none" stroke="#000" stroke-linecap="round" stroke-miterlimit="10" stroke-width="4">
      <path data-name="Path 472" d="M2809.368 696.723c0 2.616-25.555 4.746-56.648 4.746s-56.652-2.13-56.652-4.746"/>
      <path data-name="Line 199" d="M2708.968 699.704l-33.1 55.552"/>
      <path data-name="Line 200" d="M2796.526 699.704l33.1 55.552"/>
      <path data-name="Line 201" d="M2752.717 701.469v54.64"/>
    </g>
    <circle data-name="Ellipse 256" cx="4.349" cy="4.349" r="4.349" transform="translate(2733.028 629.334)" fill="#30ba78"/>
    <circle data-name="Ellipse 257" cx="4.09" cy="4.09" r="4.09" transform="translate(2767.342 651.207)" fill="#30ba78"/>
    <circle data-name="Ellipse 258" cx="5.737" cy="5.737" r="5.737" transform="translate(2724.466 667.903)" fill="#afe5cc"/>
    <circle data-name="Ellipse 259" cx="3.199" cy="3.199" r="3.199" transform="translate(2738.129 683.791)" fill="#afe5cc"/>
    <circle data-name="Ellipse 260" cx="8.306" cy="8.306" r="8.306" transform="translate(2744.411 599.041)" fill="#30ba78"/>
  </g>
</symbol>


<symbol viewBox="0 0 131 132" id='getting-started-c' xmlns="http://www.w3.org/2000/svg" width="auto" height="auto">
  <g data-name="Group 493" transform="translate(-2683.453 -929.16)">
    <g data-name="Group 257">
      <g data-name="Group 245">
        <path data-name="Rectangle 193" d="M2683.453 929.16h2.86v132.158h-2.86z"/>
        <path data-name="Rectangle 194" d="M2811.838 929.16h2.86v132.158h-2.86z"/>
        <path data-name="Rectangle 195" d="M2683.453 1057.241h131.245v4.077h-131.245z"/>
        <path data-name="Line 204" fill="none" stroke="#000" stroke-miterlimit="10" stroke-width="2" d="M2684.852 964.877h129.845"/>
        <g data-name="Group 491">
          <g data-name="Group 243">
            <path data-name="Path 961" d="M2705.845 942.242v96.2a10.335 10.335 0 0 0 10.326 10.344h2.208a10.335 10.335 0 0 0 10.343-10.327v-96.217" fill="#fff"/>
          </g>
          <g data-name="Group 243">
            <path data-name="Path 962" d="M2705.845 985.216v53.226a10.335 10.335 0 0 0 10.326 10.344h2.208a10.335 10.335 0 0 0 10.343-10.327v-53.243z" fill="#0c322c"/>
          </g>
          <g data-name="Group 243">
            <path data-name="Path 964" d="M2705.845 942.242v96.2a10.335 10.335 0 0 0 10.326 10.344h2.208a10.335 10.335 0 0 0 10.343-10.327v-96.217" fill="none" stroke="#000" stroke-linecap="round" stroke-linejoin="round" stroke-width="2"/>
          </g>
        </g>
        <g data-name="Group 492">
          <g data-name="Group 243">
            <path data-name="Path 966" d="M2768.5 942.242v96.2a10.336 10.336 0 0 0 10.326 10.344h2.208a10.335 10.335 0 0 0 10.343-10.327v-96.217" fill="#fff"/>
          </g>
          <g data-name="Group 243">
            <g data-name="Group 243">
              <path data-name="Path 967" d="M2768.5 974.319v64.123a10.336 10.336 0 0 0 10.326 10.344h2.208a10.335 10.335 0 0 0 10.343-10.327v-64.14z" fill="#0c322c"/>
            </g>
            <path data-name="Path 969" d="M2768.5 942.242v96.2a10.336 10.336 0 0 0 10.326 10.344h2.208a10.335 10.335 0 0 0 10.343-10.327v-96.217" fill="none" stroke="#000" stroke-linecap="round" stroke-miterlimit="10" stroke-width="2"/>
          </g>
        </g>
      </g>
    </g>
    <circle data-name="Ellipse 304" cx="2.724" cy="2.724" r="2.724" transform="translate(2713.459 972.684)" fill="#0c322c"/>
    <circle data-name="Ellipse 305" cx="2.724" cy="2.724" r="2.724" transform="translate(2718.908 1016.002)" fill="#fff"/>
    <circle data-name="Ellipse 306" cx="2.724" cy="2.724" r="2.724" transform="translate(2773.684 984.217)" fill="#fff"/>
    <circle data-name="Ellipse 307" cx="1.792" cy="1.792" r="1.792" transform="translate(2780.337 1011.917)" fill="#fff"/>
    <circle data-name="Ellipse 308" cx="3.536" cy="3.536" r="3.536" transform="translate(2716.472 949.26)" fill="#0c322c"/>
    <circle data-name="Ellipse 309" cx="3.536" cy="3.536" r="3.536" transform="translate(2712.648 998.572)" fill="#fff"/>
    <circle data-name="Ellipse 310" cx="3.536" cy="3.536" r="3.536" transform="translate(2776.408 952.796)" fill="#0c322c"/>
  </g>
</symbol>
</svg>
