<svg xmlns="http://www.w3.org/2000/svg" xmlns:xlink="http://www.w3.org/1999/xlink" width="313" height="170.286" viewBox="0 0 313 170.286">
  <defs>
    <filter id="Path_496" x="0" y="48.03" width="158" height="122.255" filterUnits="userSpaceOnUse">
      <feOffset dy="3" input="SourceAlpha"/>
      <feGaussianBlur stdDeviation="3" result="blur"/>
      <feFlood flood-opacity="0.161"/>
      <feComposite operator="in" in2="blur"/>
      <feComposite in="SourceGraphic"/>
    </filter>
    <filter id="Path_507" x="55.65" y="71.538" width="50.65" height="32.78" filterUnits="userSpaceOnUse">
      <feOffset dy="3" input="SourceAlpha"/>
      <feGaussianBlur stdDeviation="3" result="blur-2"/>
      <feFlood flood-opacity="0.161"/>
      <feComposite operator="in" in2="blur-2"/>
      <feComposite in="SourceGraphic"/>
    </filter>
    <filter id="Path_506" x="36.433" y="107.758" width="81.68" height="29.464" filterUnits="userSpaceOnUse">
      <feOffset dy="3" input="SourceAlpha"/>
      <feGaussianBlur stdDeviation="3" result="blur-3"/>
      <feFlood flood-opacity="0.161"/>
      <feComposite operator="in" in2="blur-3"/>
      <feComposite in="SourceGraphic"/>
    </filter>
  </defs>
  <g id="Group_376" data-name="Group 376" transform="translate(-1053 -611.842)">
    <path id="Path_510" data-name="Path 510" d="M5.117-1.078a2.8,2.8,0,0,0,1.113-.21,2.334,2.334,0,0,0,.829-.588,2.572,2.572,0,0,0,.518-.9,3.569,3.569,0,0,0,.179-1.155v-6.1H9.107v6.1a4.575,4.575,0,0,1-.277,1.61,3.741,3.741,0,0,1-.791,1.284,3.617,3.617,0,0,1-1.256.85A4.309,4.309,0,0,1,5.117.119,4.309,4.309,0,0,1,3.451-.189a3.653,3.653,0,0,1-1.26-.85A3.713,3.713,0,0,1,1.4-2.324a4.575,4.575,0,0,1-.276-1.61v-6.1H2.471v6.09A3.569,3.569,0,0,0,2.65-2.786a2.572,2.572,0,0,0,.518.9A2.365,2.365,0,0,0,4-1.291,2.786,2.786,0,0,0,5.117-1.078ZM15.3-5.922a.276.276,0,0,1-.259.154.487.487,0,0,1-.238-.077q-.133-.077-.326-.172a3.057,3.057,0,0,0-.458-.175,2.187,2.187,0,0,0-.63-.081,1.859,1.859,0,0,0-.567.081,1.362,1.362,0,0,0-.431.221.975.975,0,0,0-.273.325.874.874,0,0,0-.095.4.671.671,0,0,0,.158.455,1.369,1.369,0,0,0,.417.315,3.631,3.631,0,0,0,.588.235q.329.1.676.217t.675.256a2.451,2.451,0,0,1,.588.35,1.6,1.6,0,0,1,.417.515,1.575,1.575,0,0,1,.157.731,2.317,2.317,0,0,1-.175.907,1.978,1.978,0,0,1-.518.721,2.5,2.5,0,0,1-.84.48A3.451,3.451,0,0,1,13.02.112,3.581,3.581,0,0,1,11.676-.13a3.406,3.406,0,0,1-1.022-.62l.294-.476a.427.427,0,0,1,.133-.14.374.374,0,0,1,.2-.049.469.469,0,0,1,.266.1q.14.1.34.217a2.612,2.612,0,0,0,.483.217,2.2,2.2,0,0,0,.71.1,1.948,1.948,0,0,0,.637-.094,1.338,1.338,0,0,0,.455-.256,1.012,1.012,0,0,0,.269-.371,1.153,1.153,0,0,0,.087-.448.743.743,0,0,0-.157-.487,1.329,1.329,0,0,0-.417-.329,3.394,3.394,0,0,0-.592-.238q-.332-.1-.679-.214t-.679-.255a2.387,2.387,0,0,1-.592-.361A1.633,1.633,0,0,1,11-4.372a1.732,1.732,0,0,1-.158-.773,1.887,1.887,0,0,1,.168-.78,1.914,1.914,0,0,1,.49-.658,2.413,2.413,0,0,1,.791-.451A3.165,3.165,0,0,1,13.363-7.2a3.387,3.387,0,0,1,1.256.22,2.974,2.974,0,0,1,.963.606ZM20.125-7.2A3.165,3.165,0,0,1,21.3-6.99a2.64,2.64,0,0,1,.931.616,2.808,2.808,0,0,1,.613.994,3.84,3.84,0,0,1,.22,1.348A.813.813,0,0,1,23-3.64a.262.262,0,0,1-.238.1H18.046a3.915,3.915,0,0,0,.182,1.169,2.39,2.39,0,0,0,.462.829,1.851,1.851,0,0,0,.7.5,2.4,2.4,0,0,0,.91.164,2.67,2.67,0,0,0,.809-.108,3.847,3.847,0,0,0,.585-.235,4.459,4.459,0,0,0,.409-.234.543.543,0,0,1,.284-.109.274.274,0,0,1,.238.119l.35.455a2.367,2.367,0,0,1-.553.487,3.443,3.443,0,0,1-.69.339,4.379,4.379,0,0,1-.759.2A4.639,4.639,0,0,1,20.195.1,3.606,3.606,0,0,1,18.84-.15a2.973,2.973,0,0,1-1.071-.728,3.34,3.34,0,0,1-.7-1.186,4.825,4.825,0,0,1-.252-1.624,4.132,4.132,0,0,1,.228-1.386A3.267,3.267,0,0,1,17.7-6.192a3.013,3.013,0,0,1,1.043-.742A3.424,3.424,0,0,1,20.125-7.2Zm.028.917a1.913,1.913,0,0,0-1.421.522,2.455,2.455,0,0,0-.644,1.445h3.857a2.523,2.523,0,0,0-.119-.794,1.77,1.77,0,0,0-.35-.623,1.567,1.567,0,0,0-.564-.406A1.9,1.9,0,0,0,20.153-6.286ZM27.636,0V-6.027l-.784-.091a.624.624,0,0,1-.241-.109.254.254,0,0,1-.095-.214v-.511h1.12v-.686a3.159,3.159,0,0,1,.171-1.082,2.192,2.192,0,0,1,.49-.8,2.077,2.077,0,0,1,.766-.493,2.854,2.854,0,0,1,1.008-.168,2.689,2.689,0,0,1,.882.14l-.028.623a.159.159,0,0,1-.119.168,1.369,1.369,0,0,1-.315.028h-.217a1.912,1.912,0,0,0-.584.084,1.1,1.1,0,0,0-.451.273,1.236,1.236,0,0,0-.291.5,2.466,2.466,0,0,0-.1.763v.651H30.9v.9H28.889V0Zm7.308-7.2a3.642,3.642,0,0,1,1.4.259,2.959,2.959,0,0,1,1.064.735,3.254,3.254,0,0,1,.672,1.151,4.579,4.579,0,0,1,.235,1.509,4.57,4.57,0,0,1-.235,1.512,3.259,3.259,0,0,1-.672,1.148,2.922,2.922,0,0,1-1.064.732,3.686,3.686,0,0,1-1.4.256,3.686,3.686,0,0,1-1.4-.256,2.956,2.956,0,0,1-1.068-.732,3.273,3.273,0,0,1-.679-1.148,4.509,4.509,0,0,1-.238-1.512,4.517,4.517,0,0,1,.238-1.509,3.267,3.267,0,0,1,.679-1.151,2.993,2.993,0,0,1,1.068-.735A3.642,3.642,0,0,1,34.944-7.2Zm0,6.328a1.82,1.82,0,0,0,1.568-.7,3.257,3.257,0,0,0,.518-1.963,3.287,3.287,0,0,0-.518-1.974,1.817,1.817,0,0,0-1.568-.707,2.176,2.176,0,0,0-.924.182,1.729,1.729,0,0,0-.654.525,2.332,2.332,0,0,0-.392.843,4.522,4.522,0,0,0-.129,1.131,4.48,4.48,0,0,0,.129,1.127,2.3,2.3,0,0,0,.392.836,1.743,1.743,0,0,0,.654.522A2.176,2.176,0,0,0,34.944-.875ZM39.858,0V-7.091h.714a.394.394,0,0,1,.28.077.472.472,0,0,1,.1.266l.084,1.106a3.243,3.243,0,0,1,.9-1.158A1.987,1.987,0,0,1,43.2-7.217a1.976,1.976,0,0,1,.532.067,1.854,1.854,0,0,1,.441.185l-.161.931a.21.21,0,0,1-.217.175,1.089,1.089,0,0,1-.3-.066,1.9,1.9,0,0,0-.567-.067,1.606,1.606,0,0,0-1.089.378,2.838,2.838,0,0,0-.731,1.1V0Zm5.516-.77a.89.89,0,0,1,.067-.343.879.879,0,0,1,.182-.28.856.856,0,0,1,.277-.189.851.851,0,0,1,.343-.07.851.851,0,0,1,.343.07.9.9,0,0,1,.28.189.851.851,0,0,1,.185.28.89.89,0,0,1,.067.343.882.882,0,0,1-.067.346.86.86,0,0,1-.185.277.851.851,0,0,1-.28.185A.89.89,0,0,1,46.242.1.89.89,0,0,1,45.9.038a.812.812,0,0,1-.277-.185.89.89,0,0,1-.182-.277A.882.882,0,0,1,45.374-.77Zm0-5.25a.89.89,0,0,1,.067-.343.879.879,0,0,1,.182-.28.856.856,0,0,1,.277-.189.851.851,0,0,1,.343-.07.851.851,0,0,1,.343.07.9.9,0,0,1,.28.189.851.851,0,0,1,.185.28.89.89,0,0,1,.067.343.882.882,0,0,1-.067.346.86.86,0,0,1-.185.276.851.851,0,0,1-.28.186.89.89,0,0,1-.343.066.89.89,0,0,1-.343-.066.812.812,0,0,1-.277-.186.89.89,0,0,1-.182-.276A.882.882,0,0,1,45.374-6.02ZM51.73,2.4V-7.091h.742a.318.318,0,0,1,.336.259l.105.84a3.786,3.786,0,0,1,1.039-.889A2.655,2.655,0,0,1,55.3-7.217a2.56,2.56,0,0,1,1.106.234,2.28,2.28,0,0,1,.847.693,3.323,3.323,0,0,1,.539,1.138,5.838,5.838,0,0,1,.189,1.561,4.893,4.893,0,0,1-.21,1.46,3.554,3.554,0,0,1-.6,1.169,2.811,2.811,0,0,1-.962.777A2.847,2.847,0,0,1,54.922.1,2.644,2.644,0,0,1,53.8-.119a2.532,2.532,0,0,1-.822-.616V2.4Zm3.157-8.61a2.007,2.007,0,0,0-1.068.28,3.077,3.077,0,0,0-.843.791v3.43a2,2,0,0,0,.752.651,2.154,2.154,0,0,0,.913.189,1.787,1.787,0,0,0,1.519-.707,3.3,3.3,0,0,0,.532-2.016,5.03,5.03,0,0,0-.123-1.19,2.327,2.327,0,0,0-.354-.815,1.375,1.375,0,0,0-.567-.465A1.886,1.886,0,0,0,54.887-6.209ZM59.458,0V-7.091h.714a.394.394,0,0,1,.28.077.472.472,0,0,1,.1.266l.084,1.106a3.244,3.244,0,0,1,.9-1.158A1.987,1.987,0,0,1,62.8-7.217a1.976,1.976,0,0,1,.532.067,1.854,1.854,0,0,1,.441.185l-.161.931a.21.21,0,0,1-.217.175,1.089,1.089,0,0,1-.3-.066,1.9,1.9,0,0,0-.567-.067,1.606,1.606,0,0,0-1.089.378,2.838,2.838,0,0,0-.731,1.1V0Zm7.028-7.091V0H65.24V-7.091Zm.28-2.226a.793.793,0,0,1-.074.339.978.978,0,0,1-.2.28.911.911,0,0,1-.284.192.851.851,0,0,1-.343.07.826.826,0,0,1-.34-.07.923.923,0,0,1-.28-.192.923.923,0,0,1-.192-.28.826.826,0,0,1-.07-.339.876.876,0,0,1,.07-.347.9.9,0,0,1,.192-.287.923.923,0,0,1,.28-.193.826.826,0,0,1,.34-.07.851.851,0,0,1,.343.07.911.911,0,0,1,.284.193.949.949,0,0,1,.2.287A.84.84,0,0,1,66.766-9.317ZM68.684,0V-7.091h.742a.318.318,0,0,1,.336.259l.091.728a3.638,3.638,0,0,1,.879-.791,2.068,2.068,0,0,1,1.13-.308,1.679,1.679,0,0,1,1.166.4,2.244,2.244,0,0,1,.64,1.078,2.219,2.219,0,0,1,.389-.665,2.257,2.257,0,0,1,.542-.462,2.3,2.3,0,0,1,.641-.266,2.86,2.86,0,0,1,.689-.084,2.622,2.622,0,0,1,1,.179,1.975,1.975,0,0,1,.742.521,2.323,2.323,0,0,1,.465.844A3.735,3.735,0,0,1,78.3-4.515V0H77.049V-4.515a1.911,1.911,0,0,0-.364-1.264,1.307,1.307,0,0,0-1.057-.431,1.586,1.586,0,0,0-.585.109,1.408,1.408,0,0,0-.487.319,1.493,1.493,0,0,0-.332.528,2.05,2.05,0,0,0-.122.739V0H72.856V-4.515a1.987,1.987,0,0,0-.343-1.274,1.217,1.217,0,0,0-1-.42,1.582,1.582,0,0,0-.857.249,2.807,2.807,0,0,0-.725.675V0Zm16.7,0h-.553a.66.66,0,0,1-.294-.056.31.31,0,0,1-.147-.238l-.14-.658q-.28.252-.546.451a3.125,3.125,0,0,1-.56.336,2.9,2.9,0,0,1-.626.206,3.593,3.593,0,0,1-.739.07A2.521,2.521,0,0,1,81.007,0a1.763,1.763,0,0,1-.627-.346,1.65,1.65,0,0,1-.424-.584,2.042,2.042,0,0,1-.158-.836,1.56,1.56,0,0,1,.231-.809,2.03,2.03,0,0,1,.745-.69,4.857,4.857,0,0,1,1.348-.494,10.266,10.266,0,0,1,2.037-.22v-.553a1.909,1.909,0,0,0-.354-1.249,1.285,1.285,0,0,0-1.046-.424,2.219,2.219,0,0,0-.767.115,2.9,2.9,0,0,0-.539.259q-.227.144-.392.259a.565.565,0,0,1-.326.115.373.373,0,0,1-.22-.066.507.507,0,0,1-.151-.165l-.224-.4a4.049,4.049,0,0,1,1.267-.847,3.912,3.912,0,0,1,1.505-.28,2.685,2.685,0,0,1,1.057.2,2.168,2.168,0,0,1,.777.546,2.312,2.312,0,0,1,.476.847,3.527,3.527,0,0,1,.161,1.092ZM82.152-.763a2.544,2.544,0,0,0,.6-.067,2.376,2.376,0,0,0,.515-.189,2.727,2.727,0,0,0,.462-.3,4,4,0,0,0,.43-.4V-3.192a10.3,10.3,0,0,0-1.463.136,4.1,4.1,0,0,0-.98.283,1.365,1.365,0,0,0-.549.413A.888.888,0,0,0,81-1.827a1.174,1.174,0,0,0,.091.483.915.915,0,0,0,.245.332.967.967,0,0,0,.364.189A1.664,1.664,0,0,0,82.152-.763ZM87.276,0V-7.091h.714a.394.394,0,0,1,.28.077.472.472,0,0,1,.105.266l.084,1.106a3.243,3.243,0,0,1,.9-1.158,1.987,1.987,0,0,1,1.257-.417,1.976,1.976,0,0,1,.532.067,1.855,1.855,0,0,1,.441.185l-.161.931a.21.21,0,0,1-.217.175,1.089,1.089,0,0,1-.3-.066,1.9,1.9,0,0,0-.567-.067,1.606,1.606,0,0,0-1.089.378,2.838,2.838,0,0,0-.731,1.1V0ZM95,2.093a.652.652,0,0,1-.158.224.428.428,0,0,1-.29.084h-.924l1.3-2.814L91.994-7.091h1.078a.367.367,0,0,1,.252.081.5.5,0,0,1,.133.178l1.9,4.466a3.23,3.23,0,0,1,.108.308q.046.154.081.315.049-.161.1-.315t.112-.315l1.841-4.459a.4.4,0,0,1,.144-.186.368.368,0,0,1,.22-.073h.994Zm12.628-7.924a.556.556,0,0,1-.112.119.265.265,0,0,1-.161.042.4.4,0,0,1-.228-.087,3.316,3.316,0,0,0-.312-.193,2.608,2.608,0,0,0-.458-.192,2.164,2.164,0,0,0-.661-.088,2.152,2.152,0,0,0-.917.186,1.778,1.778,0,0,0-.669.536,2.423,2.423,0,0,0-.406.847,4.2,4.2,0,0,0-.136,1.113,4.066,4.066,0,0,0,.147,1.145,2.48,2.48,0,0,0,.413.84,1.762,1.762,0,0,0,.647.518,2,2,0,0,0,.857.178,2.192,2.192,0,0,0,.749-.109,2.282,2.282,0,0,0,.49-.241,3.591,3.591,0,0,0,.322-.242.388.388,0,0,1,.252-.109.263.263,0,0,1,.238.119l.35.455a2.694,2.694,0,0,1-1.155.83A4.1,4.1,0,0,1,105.413.1a3.1,3.1,0,0,1-1.236-.245,2.817,2.817,0,0,1-.991-.711A3.371,3.371,0,0,1,102.525-2a4.6,4.6,0,0,1-.242-1.547,4.668,4.668,0,0,1,.221-1.463,3.315,3.315,0,0,1,.644-1.158,2.919,2.919,0,0,1,1.047-.76,3.527,3.527,0,0,1,1.428-.273,3.368,3.368,0,0,1,1.316.242,3.15,3.15,0,0,1,1.015.682ZM112.2-7.2a3.642,3.642,0,0,1,1.4.259,2.959,2.959,0,0,1,1.064.735,3.254,3.254,0,0,1,.672,1.151,4.579,4.579,0,0,1,.234,1.509,4.57,4.57,0,0,1-.234,1.512,3.259,3.259,0,0,1-.672,1.148,2.922,2.922,0,0,1-1.064.732A3.686,3.686,0,0,1,112.2.1a3.686,3.686,0,0,1-1.4-.256,2.956,2.956,0,0,1-1.068-.732,3.273,3.273,0,0,1-.679-1.148,4.509,4.509,0,0,1-.238-1.512,4.517,4.517,0,0,1,.238-1.509,3.267,3.267,0,0,1,.679-1.151,2.993,2.993,0,0,1,1.068-.735A3.642,3.642,0,0,1,112.2-7.2Zm0,6.328a1.82,1.82,0,0,0,1.568-.7,3.257,3.257,0,0,0,.518-1.963,3.287,3.287,0,0,0-.518-1.974,1.817,1.817,0,0,0-1.568-.707,2.176,2.176,0,0,0-.924.182,1.729,1.729,0,0,0-.655.525,2.332,2.332,0,0,0-.392.843,4.521,4.521,0,0,0-.13,1.131,4.48,4.48,0,0,0,.13,1.127,2.3,2.3,0,0,0,.392.836,1.743,1.743,0,0,0,.655.522A2.176,2.176,0,0,0,112.2-.875Zm6.3-9.436V0H117.25V-10.311ZM123.564-7.2a3.642,3.642,0,0,1,1.4.259,2.959,2.959,0,0,1,1.064.735,3.254,3.254,0,0,1,.672,1.151,4.579,4.579,0,0,1,.234,1.509,4.57,4.57,0,0,1-.234,1.512,3.259,3.259,0,0,1-.672,1.148,2.922,2.922,0,0,1-1.064.732,3.686,3.686,0,0,1-1.4.256,3.686,3.686,0,0,1-1.4-.256,2.956,2.956,0,0,1-1.068-.732,3.273,3.273,0,0,1-.679-1.148,4.509,4.509,0,0,1-.238-1.512,4.517,4.517,0,0,1,.238-1.509,3.267,3.267,0,0,1,.679-1.151,2.993,2.993,0,0,1,1.068-.735A3.642,3.642,0,0,1,123.564-7.2Zm0,6.328a1.82,1.82,0,0,0,1.568-.7,3.257,3.257,0,0,0,.518-1.963,3.287,3.287,0,0,0-.518-1.974,1.817,1.817,0,0,0-1.568-.707,2.176,2.176,0,0,0-.924.182,1.729,1.729,0,0,0-.655.525,2.332,2.332,0,0,0-.392.843,4.521,4.521,0,0,0-.13,1.131,4.48,4.48,0,0,0,.13,1.127,2.3,2.3,0,0,0,.392.836,1.743,1.743,0,0,0,.655.522A2.176,2.176,0,0,0,123.564-.875ZM128.478,0V-7.091h.714a.394.394,0,0,1,.28.077.472.472,0,0,1,.1.266l.084,1.106a3.243,3.243,0,0,1,.9-1.158,1.987,1.987,0,0,1,1.257-.417,1.976,1.976,0,0,1,.532.067,1.854,1.854,0,0,1,.441.185l-.161.931a.21.21,0,0,1-.217.175,1.089,1.089,0,0,1-.3-.066,1.9,1.9,0,0,0-.567-.067,1.606,1.606,0,0,0-1.089.378,2.838,2.838,0,0,0-.732,1.1V0Zm4.354-.861a.787.787,0,0,1,.059-.3.769.769,0,0,1,.168-.252.788.788,0,0,1,.262-.171.879.879,0,0,1,.336-.063.873.873,0,0,1,.375.077.748.748,0,0,1,.273.213.965.965,0,0,1,.165.315,1.292,1.292,0,0,1,.056.388,2.525,2.525,0,0,1-.091.654,3.5,3.5,0,0,1-.259.672,3.849,3.849,0,0,1-.417.647,4.011,4.011,0,0,1-.563.581l-.21-.2a.259.259,0,0,1-.091-.2.277.277,0,0,1,.1-.189q.07-.077.178-.207a3.4,3.4,0,0,0,.221-.3A2.793,2.793,0,0,0,133.6.434,1.777,1.777,0,0,0,133.735,0h-.091a.827.827,0,0,1-.329-.063.754.754,0,0,1-.256-.178.813.813,0,0,1-.168-.273A.973.973,0,0,1,132.832-.861Zm13.3-1.211a.281.281,0,0,1,.2.091l.532.581a4.291,4.291,0,0,1-1.494,1.113,5.1,5.1,0,0,1-2.118.4,4.985,4.985,0,0,1-1.967-.375,4.311,4.311,0,0,1-1.505-1.05,4.746,4.746,0,0,1-.966-1.621,6.053,6.053,0,0,1-.343-2.079,5.69,5.69,0,0,1,.367-2.079,4.751,4.751,0,0,1,1.033-1.624,4.62,4.62,0,0,1,1.592-1.053,5.421,5.421,0,0,1,2.048-.375,4.829,4.829,0,0,1,1.908.343,4.821,4.821,0,0,1,1.424.931l-.441.623a.481.481,0,0,1-.112.116.308.308,0,0,1-.182.045.354.354,0,0,1-.193-.066q-.1-.067-.242-.165t-.329-.21a2.883,2.883,0,0,0-.448-.21,3.7,3.7,0,0,0-.6-.165,4.19,4.19,0,0,0-.791-.066,3.819,3.819,0,0,0-1.473.276,3.3,3.3,0,0,0-1.152.788,3.583,3.583,0,0,0-.752,1.246,4.751,4.751,0,0,0-.27,1.645,4.839,4.839,0,0,0,.27,1.673,3.694,3.694,0,0,0,.735,1.243,3.1,3.1,0,0,0,1.1.773,3.524,3.524,0,0,0,1.372.266,5.571,5.571,0,0,0,.805-.053,3.306,3.306,0,0,0,.661-.164,2.8,2.8,0,0,0,.567-.284,4.434,4.434,0,0,0,.529-.409A.356.356,0,0,1,146.132-2.072Zm9.352-7.959V-8.89h-3.241V0h-1.358V-8.89H147.63v-1.141ZM164.241,0h-1.05a.452.452,0,0,1-.294-.091.56.56,0,0,1-.168-.231l-.938-2.422h-4.5l-.938,2.422a.547.547,0,0,1-.168.224.447.447,0,0,1-.294.1h-1.05l4.011-10.031h1.379Zm-6.573-3.724h3.745l-1.575-4.081a7.63,7.63,0,0,1-.3-.945q-.077.287-.15.528t-.143.424Zm7.28,2.863a.787.787,0,0,1,.059-.3.769.769,0,0,1,.168-.252.788.788,0,0,1,.262-.171.879.879,0,0,1,.336-.063.873.873,0,0,1,.375.077.748.748,0,0,1,.273.213.965.965,0,0,1,.165.315,1.292,1.292,0,0,1,.056.388,2.525,2.525,0,0,1-.091.654,3.5,3.5,0,0,1-.259.672,3.849,3.849,0,0,1-.417.647,4.011,4.011,0,0,1-.563.581l-.21-.2a.259.259,0,0,1-.091-.2.277.277,0,0,1,.1-.189q.07-.077.178-.207a3.4,3.4,0,0,0,.221-.3,2.793,2.793,0,0,0,.206-.371A1.777,1.777,0,0,0,165.851,0h-.091a.827.827,0,0,1-.329-.063.754.754,0,0,1-.256-.178.813.813,0,0,1-.168-.273A.973.973,0,0,1,164.948-.861ZM176.19,0h-.553a.66.66,0,0,1-.294-.056.31.31,0,0,1-.147-.238l-.14-.658q-.28.252-.546.451a3.125,3.125,0,0,1-.56.336,2.9,2.9,0,0,1-.627.206,3.593,3.593,0,0,1-.738.07A2.521,2.521,0,0,1,171.812,0a1.763,1.763,0,0,1-.626-.346,1.65,1.65,0,0,1-.424-.584,2.043,2.043,0,0,1-.158-.836,1.56,1.56,0,0,1,.231-.809,2.03,2.03,0,0,1,.745-.69,4.857,4.857,0,0,1,1.348-.494,10.266,10.266,0,0,1,2.037-.22v-.553a1.909,1.909,0,0,0-.354-1.249,1.285,1.285,0,0,0-1.047-.424,2.218,2.218,0,0,0-.766.115,2.9,2.9,0,0,0-.539.259q-.227.144-.392.259a.565.565,0,0,1-.326.115.373.373,0,0,1-.221-.066.507.507,0,0,1-.15-.165l-.224-.4a4.049,4.049,0,0,1,1.267-.847,3.912,3.912,0,0,1,1.505-.28,2.685,2.685,0,0,1,1.057.2,2.168,2.168,0,0,1,.777.546,2.312,2.312,0,0,1,.476.847,3.528,3.528,0,0,1,.161,1.092Zm-3.234-.763a2.544,2.544,0,0,0,.6-.067,2.376,2.376,0,0,0,.514-.189,2.726,2.726,0,0,0,.462-.3,4,4,0,0,0,.431-.4V-3.192a10.3,10.3,0,0,0-1.463.136,4.1,4.1,0,0,0-.98.283,1.365,1.365,0,0,0-.549.413.888.888,0,0,0-.171.532,1.174,1.174,0,0,0,.091.483.915.915,0,0,0,.245.332.967.967,0,0,0,.364.189A1.664,1.664,0,0,0,172.956-.763ZM178.08,0V-7.091h.742a.318.318,0,0,1,.336.259l.1.77a3.985,3.985,0,0,1,1.033-.826,2.685,2.685,0,0,1,1.32-.315,2.56,2.56,0,0,1,1.025.193,1.984,1.984,0,0,1,.742.546,2.411,2.411,0,0,1,.451.851,3.7,3.7,0,0,1,.154,1.1V0h-1.246V-4.515a1.909,1.909,0,0,0-.368-1.249,1.374,1.374,0,0,0-1.123-.445,2.094,2.094,0,0,0-1.033.266,3.4,3.4,0,0,0-.885.721V0Zm12.775,0a.318.318,0,0,1-.336-.259l-.112-.861a3.733,3.733,0,0,1-1.04.885,2.663,2.663,0,0,1-1.34.333,2.56,2.56,0,0,1-1.106-.235,2.294,2.294,0,0,1-.847-.689,3.284,3.284,0,0,1-.539-1.134,5.839,5.839,0,0,1-.189-1.561,4.893,4.893,0,0,1,.21-1.459,3.557,3.557,0,0,1,.605-1.173,2.838,2.838,0,0,1,.962-.78,2.841,2.841,0,0,1,1.288-.284,2.566,2.566,0,0,1,1.113.22,2.669,2.669,0,0,1,.826.62v-3.934H191.6V0ZM188.44-.91a2.007,2.007,0,0,0,1.067-.28,3.077,3.077,0,0,0,.844-.791v-3.43a1.972,1.972,0,0,0-.753-.647,2.172,2.172,0,0,0-.906-.186,1.8,1.8,0,0,0-1.526.707,3.3,3.3,0,0,0-.532,2.016,5.126,5.126,0,0,0,.119,1.187,2.283,2.283,0,0,0,.35.812,1.375,1.375,0,0,0,.567.466A1.9,1.9,0,0,0,188.44-.91ZM201.6,0h-.553a.66.66,0,0,1-.294-.056.31.31,0,0,1-.147-.238l-.14-.658q-.28.252-.546.451a3.125,3.125,0,0,1-.56.336,2.9,2.9,0,0,1-.627.206,3.593,3.593,0,0,1-.738.07A2.521,2.521,0,0,1,197.221,0,1.763,1.763,0,0,1,196.6-.35a1.65,1.65,0,0,1-.424-.584,2.043,2.043,0,0,1-.158-.836,1.56,1.56,0,0,1,.231-.809,2.03,2.03,0,0,1,.745-.69,4.857,4.857,0,0,1,1.348-.494,10.266,10.266,0,0,1,2.037-.22v-.553a1.909,1.909,0,0,0-.354-1.249,1.285,1.285,0,0,0-1.047-.424,2.218,2.218,0,0,0-.766.115,2.9,2.9,0,0,0-.539.259q-.227.144-.392.259a.565.565,0,0,1-.326.115.373.373,0,0,1-.221-.066.507.507,0,0,1-.15-.165l-.224-.4a4.049,4.049,0,0,1,1.267-.847,3.912,3.912,0,0,1,1.505-.28,2.685,2.685,0,0,1,1.057.2,2.168,2.168,0,0,1,.777.546,2.312,2.312,0,0,1,.476.847,3.528,3.528,0,0,1,.161,1.092Zm-3.234-.763a2.544,2.544,0,0,0,.6-.067,2.376,2.376,0,0,0,.514-.189,2.726,2.726,0,0,0,.462-.3,4,4,0,0,0,.431-.4V-3.192a10.3,10.3,0,0,0-1.463.136,4.1,4.1,0,0,0-.98.283,1.365,1.365,0,0,0-.549.413.888.888,0,0,0-.171.532,1.174,1.174,0,0,0,.091.483.915.915,0,0,0,.245.332.967.967,0,0,0,.364.189A1.664,1.664,0,0,0,198.366-.763Zm9.961-5.068a.556.556,0,0,1-.112.119.265.265,0,0,1-.161.042.4.4,0,0,1-.227-.087,3.315,3.315,0,0,0-.312-.193,2.607,2.607,0,0,0-.458-.192,2.164,2.164,0,0,0-.661-.088,2.153,2.153,0,0,0-.917.186,1.778,1.778,0,0,0-.668.536,2.423,2.423,0,0,0-.406.847,4.2,4.2,0,0,0-.137,1.113,4.066,4.066,0,0,0,.147,1.145,2.48,2.48,0,0,0,.413.84,1.762,1.762,0,0,0,.648.518,2,2,0,0,0,.857.178,2.192,2.192,0,0,0,.749-.109,2.282,2.282,0,0,0,.49-.241,3.592,3.592,0,0,0,.322-.242.388.388,0,0,1,.252-.109.263.263,0,0,1,.238.119l.35.455a2.694,2.694,0,0,1-1.155.83A4.1,4.1,0,0,1,206.115.1a3.1,3.1,0,0,1-1.236-.245,2.817,2.817,0,0,1-.99-.711A3.371,3.371,0,0,1,203.228-2a4.6,4.6,0,0,1-.242-1.547,4.668,4.668,0,0,1,.22-1.463,3.315,3.315,0,0,1,.644-1.158,2.919,2.919,0,0,1,1.046-.76,3.527,3.527,0,0,1,1.428-.273,3.368,3.368,0,0,1,1.316.242,3.15,3.15,0,0,1,1.015.682Zm3.85,5.943a1.709,1.709,0,0,1-1.292-.469,1.872,1.872,0,0,1-.452-1.351v-4.34h-.854a.279.279,0,0,1-.189-.066.258.258,0,0,1-.077-.207v-.5l1.162-.147.287-2.191a.265.265,0,0,1,.091-.171.289.289,0,0,1,.2-.067h.63v2.443h2.03v.9h-2.03v4.256a.905.905,0,0,0,.217.665.758.758,0,0,0,.56.217.988.988,0,0,0,.339-.053,1.456,1.456,0,0,0,.249-.115q.1-.063.178-.115a.234.234,0,0,1,.13-.053.215.215,0,0,1,.175.119l.364.595a2.322,2.322,0,0,1-.777.473A2.638,2.638,0,0,1,212.177.112Zm4.459-7.2V0H215.39V-7.091Zm.28-2.226a.793.793,0,0,1-.074.339.977.977,0,0,1-.2.28.91.91,0,0,1-.284.192.851.851,0,0,1-.343.07.826.826,0,0,1-.34-.07.923.923,0,0,1-.28-.192.923.923,0,0,1-.193-.28.826.826,0,0,1-.07-.339.876.876,0,0,1,.07-.347.9.9,0,0,1,.193-.287.923.923,0,0,1,.28-.193.826.826,0,0,1,.34-.07.851.851,0,0,1,.343.07.91.91,0,0,1,.284.193.949.949,0,0,1,.2.287A.84.84,0,0,1,216.916-9.317Zm1.022,2.226h1.022a.384.384,0,0,1,.245.077.436.436,0,0,1,.14.182l1.8,4.564a3.464,3.464,0,0,1,.154.5q.056.252.1.5.056-.245.119-.5a4.2,4.2,0,0,1,.161-.5l1.82-4.564a.415.415,0,0,1,.137-.186.37.37,0,0,1,.234-.073h.973L221.956,0h-1.127ZM228.627-7.2a3.165,3.165,0,0,1,1.176.214,2.64,2.64,0,0,1,.931.616,2.808,2.808,0,0,1,.612.994,3.84,3.84,0,0,1,.221,1.348.812.812,0,0,1-.063.392.262.262,0,0,1-.238.1h-4.718a3.915,3.915,0,0,0,.182,1.169,2.39,2.39,0,0,0,.462.829,1.851,1.851,0,0,0,.7.5,2.4,2.4,0,0,0,.91.164,2.67,2.67,0,0,0,.809-.108,3.847,3.847,0,0,0,.585-.235,4.459,4.459,0,0,0,.41-.234.543.543,0,0,1,.283-.109.274.274,0,0,1,.238.119l.35.455a2.366,2.366,0,0,1-.553.487,3.444,3.444,0,0,1-.689.339,4.38,4.38,0,0,1-.76.2A4.639,4.639,0,0,1,228.7.1a3.606,3.606,0,0,1-1.355-.249,2.973,2.973,0,0,1-1.071-.728,3.34,3.34,0,0,1-.7-1.186,4.825,4.825,0,0,1-.252-1.624,4.132,4.132,0,0,1,.227-1.386,3.267,3.267,0,0,1,.654-1.116,3.013,3.013,0,0,1,1.043-.742A3.424,3.424,0,0,1,228.627-7.2Zm.028.917a1.913,1.913,0,0,0-1.421.522,2.455,2.455,0,0,0-.644,1.445h3.857a2.523,2.523,0,0,0-.119-.794,1.77,1.77,0,0,0-.35-.623,1.566,1.566,0,0,0-.563-.406A1.9,1.9,0,0,0,228.655-6.286Zm11.263.364a.276.276,0,0,1-.259.154.487.487,0,0,1-.238-.077q-.133-.077-.326-.172a3.057,3.057,0,0,0-.459-.175,2.187,2.187,0,0,0-.63-.081,1.859,1.859,0,0,0-.567.081,1.362,1.362,0,0,0-.431.221.975.975,0,0,0-.273.325.874.874,0,0,0-.094.4.671.671,0,0,0,.158.455,1.369,1.369,0,0,0,.417.315,3.631,3.631,0,0,0,.588.235q.329.1.675.217t.676.256a2.451,2.451,0,0,1,.588.35,1.6,1.6,0,0,1,.417.515,1.575,1.575,0,0,1,.158.731,2.316,2.316,0,0,1-.175.907,1.978,1.978,0,0,1-.518.721,2.5,2.5,0,0,1-.84.48,3.451,3.451,0,0,1-1.148.175,3.581,3.581,0,0,1-1.344-.242,3.406,3.406,0,0,1-1.022-.62l.294-.476a.427.427,0,0,1,.133-.14.374.374,0,0,1,.2-.049.469.469,0,0,1,.266.1q.14.1.339.217a2.613,2.613,0,0,0,.483.217,2.2,2.2,0,0,0,.711.1,1.948,1.948,0,0,0,.637-.094,1.338,1.338,0,0,0,.455-.256,1.012,1.012,0,0,0,.27-.371,1.153,1.153,0,0,0,.087-.448.743.743,0,0,0-.158-.487,1.329,1.329,0,0,0-.416-.329,3.394,3.394,0,0,0-.592-.238q-.332-.1-.679-.214t-.679-.255a2.387,2.387,0,0,1-.591-.361,1.633,1.633,0,0,1-.417-.536,1.732,1.732,0,0,1-.158-.773,1.887,1.887,0,0,1,.168-.78,1.914,1.914,0,0,1,.49-.658,2.413,2.413,0,0,1,.791-.451,3.165,3.165,0,0,1,1.071-.168,3.388,3.388,0,0,1,1.257.22,2.974,2.974,0,0,1,.962.606ZM244.083.112a1.709,1.709,0,0,1-1.292-.469,1.872,1.872,0,0,1-.452-1.351v-4.34h-.854a.279.279,0,0,1-.189-.066.258.258,0,0,1-.077-.207v-.5l1.162-.147.287-2.191a.265.265,0,0,1,.091-.171.289.289,0,0,1,.2-.067h.63v2.443h2.03v.9h-2.03v4.256a.905.905,0,0,0,.217.665.758.758,0,0,0,.56.217.988.988,0,0,0,.339-.053,1.456,1.456,0,0,0,.249-.115q.1-.063.178-.115a.234.234,0,0,1,.13-.053.215.215,0,0,1,.175.119l.364.595a2.322,2.322,0,0,1-.777.473A2.638,2.638,0,0,1,244.083.112ZM252.364,0h-.553a.66.66,0,0,1-.294-.056.31.31,0,0,1-.147-.238l-.14-.658q-.28.252-.546.451a3.125,3.125,0,0,1-.56.336,2.9,2.9,0,0,1-.627.206,3.593,3.593,0,0,1-.738.07A2.521,2.521,0,0,1,247.986,0a1.763,1.763,0,0,1-.626-.346,1.65,1.65,0,0,1-.424-.584,2.043,2.043,0,0,1-.158-.836,1.56,1.56,0,0,1,.231-.809,2.03,2.03,0,0,1,.745-.69,4.857,4.857,0,0,1,1.348-.494,10.266,10.266,0,0,1,2.037-.22v-.553a1.909,1.909,0,0,0-.354-1.249,1.285,1.285,0,0,0-1.047-.424,2.218,2.218,0,0,0-.766.115,2.9,2.9,0,0,0-.539.259q-.227.144-.392.259a.565.565,0,0,1-.326.115.373.373,0,0,1-.221-.066.507.507,0,0,1-.15-.165l-.224-.4a4.049,4.049,0,0,1,1.267-.847,3.912,3.912,0,0,1,1.505-.28,2.685,2.685,0,0,1,1.057.2,2.168,2.168,0,0,1,.777.546,2.312,2.312,0,0,1,.476.847,3.528,3.528,0,0,1,.161,1.092ZM249.13-.763a2.544,2.544,0,0,0,.6-.067,2.376,2.376,0,0,0,.514-.189,2.726,2.726,0,0,0,.462-.3,4,4,0,0,0,.431-.4V-3.192a10.3,10.3,0,0,0-1.463.136,4.1,4.1,0,0,0-.98.283,1.365,1.365,0,0,0-.549.413.888.888,0,0,0-.171.532,1.174,1.174,0,0,0,.091.483.915.915,0,0,0,.245.332.967.967,0,0,0,.364.189A1.664,1.664,0,0,0,249.13-.763ZM256.4.112a1.709,1.709,0,0,1-1.291-.469,1.872,1.872,0,0,1-.452-1.351v-4.34h-.854a.279.279,0,0,1-.189-.066.258.258,0,0,1-.077-.207v-.5l1.162-.147.287-2.191a.265.265,0,0,1,.091-.171.289.289,0,0,1,.2-.067h.63v2.443h2.03v.9h-2.03v4.256a.905.905,0,0,0,.217.665.758.758,0,0,0,.56.217.989.989,0,0,0,.34-.053,1.457,1.457,0,0,0,.249-.115q.105-.063.178-.115a.234.234,0,0,1,.129-.053.215.215,0,0,1,.175.119l.364.595a2.321,2.321,0,0,1-.777.473A2.639,2.639,0,0,1,256.4.112Zm4.151-7.2v4.522a1.882,1.882,0,0,0,.371,1.246,1.381,1.381,0,0,0,1.12.441,2.145,2.145,0,0,0,1.029-.259,3.2,3.2,0,0,0,.889-.721V-7.091h1.246V0h-.742a.318.318,0,0,1-.336-.259l-.1-.763A3.9,3.9,0,0,1,263-.2a2.715,2.715,0,0,1-1.316.311,2.56,2.56,0,0,1-1.025-.193,2.033,2.033,0,0,1-.746-.543,2.3,2.3,0,0,1-.452-.847,3.782,3.782,0,0,1-.15-1.1V-7.091ZM271.32-5.922a.276.276,0,0,1-.259.154.487.487,0,0,1-.238-.077q-.133-.077-.326-.172a3.057,3.057,0,0,0-.458-.175,2.187,2.187,0,0,0-.63-.081,1.859,1.859,0,0,0-.567.081,1.362,1.362,0,0,0-.431.221.975.975,0,0,0-.273.325.874.874,0,0,0-.095.4.671.671,0,0,0,.158.455,1.369,1.369,0,0,0,.417.315,3.631,3.631,0,0,0,.588.235q.329.1.676.217t.676.256a2.451,2.451,0,0,1,.588.35,1.6,1.6,0,0,1,.416.515,1.575,1.575,0,0,1,.158.731,2.316,2.316,0,0,1-.175.907,1.978,1.978,0,0,1-.518.721,2.5,2.5,0,0,1-.84.48,3.451,3.451,0,0,1-1.148.175,3.581,3.581,0,0,1-1.344-.242,3.406,3.406,0,0,1-1.022-.62l.294-.476a.427.427,0,0,1,.133-.14.373.373,0,0,1,.2-.049.469.469,0,0,1,.266.1q.14.1.34.217a2.612,2.612,0,0,0,.483.217,2.2,2.2,0,0,0,.711.1,1.948,1.948,0,0,0,.637-.094,1.338,1.338,0,0,0,.455-.256,1.012,1.012,0,0,0,.27-.371,1.153,1.153,0,0,0,.088-.448.743.743,0,0,0-.158-.487,1.329,1.329,0,0,0-.417-.329,3.4,3.4,0,0,0-.591-.238q-.333-.1-.679-.214t-.679-.255a2.387,2.387,0,0,1-.592-.361,1.633,1.633,0,0,1-.417-.536,1.731,1.731,0,0,1-.158-.773,1.887,1.887,0,0,1,.168-.78,1.915,1.915,0,0,1,.49-.658,2.413,2.413,0,0,1,.791-.451,3.165,3.165,0,0,1,1.071-.168,3.388,3.388,0,0,1,1.257.22,2.973,2.973,0,0,1,.962.606ZM272.93-.77A.889.889,0,0,1,273-1.113a.88.88,0,0,1,.182-.28.856.856,0,0,1,.276-.189.851.851,0,0,1,.343-.07.851.851,0,0,1,.343.07.9.9,0,0,1,.28.189.851.851,0,0,1,.186.28.889.889,0,0,1,.066.343.882.882,0,0,1-.066.346.86.86,0,0,1-.186.277.85.85,0,0,1-.28.185A.89.89,0,0,1,273.8.1a.89.89,0,0,1-.343-.066.812.812,0,0,1-.276-.185A.89.89,0,0,1,273-.424.882.882,0,0,1,272.93-.77Z" transform="translate(1085 656)" fill="#141823"/>
    <g id="COLOR-GROUP-BLUE" transform="translate(1393.755 695)">
      <rect id="Rectangle_264" data-name="Rectangle 264" width="106" height="16" rx="4" transform="translate(-139.755 -83)" fill="#f9f2f4"/>
      <path id="Path_511" data-name="Path 511" d="M-98.184-.912A1.789,1.789,0,0,0-97.038-1.4a1.455,1.455,0,0,0,.4-1.053,1.05,1.05,0,0,0-.105-.486,1.165,1.165,0,0,0-.285-.357,1.738,1.738,0,0,0-.423-.261,5.4,5.4,0,0,0-.519-.2Zm-.24-6.774a2.244,2.244,0,0,0-.651.15,1.466,1.466,0,0,0-.45.282,1.05,1.05,0,0,0-.261.384,1.231,1.231,0,0,0-.084.45,1.1,1.1,0,0,0,.1.474,1.108,1.108,0,0,0,.267.357,1.78,1.78,0,0,0,.4.267,4.908,4.908,0,0,0,.5.21Zm.528,2.808q.432.132.855.291a3.157,3.157,0,0,1,.759.4,1.912,1.912,0,0,1,.543.615,1.875,1.875,0,0,1,.207.927,2.839,2.839,0,0,1-.183,1.02,2.515,2.515,0,0,1-.531.846A2.68,2.68,0,0,1-97.1-.18a3.321,3.321,0,0,1-1.155.27l-.072,1a.334.334,0,0,1-.1.216.3.3,0,0,1-.228.1h-.432l.1-1.332a4.038,4.038,0,0,1-1.32-.369,3.615,3.615,0,0,1-1.038-.735l.354-.54a.474.474,0,0,1,.132-.12.325.325,0,0,1,.174-.048.466.466,0,0,1,.267.108q.147.108.351.249a3.642,3.642,0,0,0,.483.276,2.24,2.24,0,0,0,.669.189l.222-3.054q-.42-.126-.828-.285a2.749,2.749,0,0,1-.732-.42,1.967,1.967,0,0,1-.522-.651,2.15,2.15,0,0,1-.2-.978,2.237,2.237,0,0,1,.174-.864,2.273,2.273,0,0,1,.507-.75,2.622,2.622,0,0,1,.822-.54,3.119,3.119,0,0,1,1.119-.234l.06-.84a.334.334,0,0,1,.1-.216.3.3,0,0,1,.228-.1h.432l-.084,1.182a3.139,3.139,0,0,1,1.089.333,3.478,3.478,0,0,1,.807.6l-.282.432a.355.355,0,0,1-.294.2.434.434,0,0,1-.207-.072q-.123-.072-.294-.165t-.393-.189a2.2,2.2,0,0,0-.5-.144Zm7.83,1.152a2,2,0,0,0-.1-.642,1.458,1.458,0,0,0-.291-.51,1.323,1.323,0,0,0-.468-.336,1.582,1.582,0,0,0-.636-.12,1.563,1.563,0,0,0-1.161.426,2.061,2.061,0,0,0-.537,1.182ZM-89.1-.87a2.3,2.3,0,0,1-.5.435,2.89,2.89,0,0,1-.6.3,3.638,3.638,0,0,1-.657.168,4.248,4.248,0,0,1-.669.054,3.137,3.137,0,0,1-1.167-.213,2.594,2.594,0,0,1-.93-.624,2.846,2.846,0,0,1-.612-1.02,4.129,4.129,0,0,1-.219-1.4,3.467,3.467,0,0,1,.2-1.185,2.852,2.852,0,0,1,.567-.957,2.614,2.614,0,0,1,.9-.642,2.96,2.96,0,0,1,1.2-.234,2.818,2.818,0,0,1,1.029.183,2.285,2.285,0,0,1,.813.531,2.457,2.457,0,0,1,.537.858,3.243,3.243,0,0,1,.195,1.164.742.742,0,0,1-.06.363A.244.244,0,0,1-89.292-3h-4a3.293,3.293,0,0,0,.156.951,1.92,1.92,0,0,0,.381.675,1.514,1.514,0,0,0,.579.4,2.036,2.036,0,0,0,.75.132,2.252,2.252,0,0,0,.675-.09,3.273,3.273,0,0,0,.492-.195q.207-.105.348-.195a.48.48,0,0,1,.249-.09.257.257,0,0,1,.222.108Zm3.948-5.322a3.222,3.222,0,0,1,1.215.219,2.533,2.533,0,0,1,.924.63,2.808,2.808,0,0,1,.585.99,3.891,3.891,0,0,1,.2,1.3,3.918,3.918,0,0,1-.2,1.3,2.773,2.773,0,0,1-.585.99,2.551,2.551,0,0,1-.924.627,3.222,3.222,0,0,1-1.215.219,3.239,3.239,0,0,1-1.221-.219A2.58,2.58,0,0,1-87.3-.762a2.784,2.784,0,0,1-.591-.99,3.866,3.866,0,0,1-.207-1.3,3.84,3.84,0,0,1,.207-1.3,2.82,2.82,0,0,1,.591-.99,2.562,2.562,0,0,1,.927-.63A3.239,3.239,0,0,1-85.152-6.192Zm0,5.364a1.494,1.494,0,0,0,1.29-.582,2.733,2.733,0,0,0,.426-1.638,2.747,2.747,0,0,0-.426-1.641,1.491,1.491,0,0,0-1.29-.585,1.512,1.512,0,0,0-1.305.585,2.733,2.733,0,0,0-.429,1.641,2.719,2.719,0,0,0,.429,1.638A1.515,1.515,0,0,0-85.152-.828Zm7.824-4.218a.327.327,0,0,1-.1.111.261.261,0,0,1-.138.033.441.441,0,0,1-.213-.066q-.117-.066-.282-.144a2.733,2.733,0,0,0-.387-.144,1.865,1.865,0,0,0-.528-.066,1.572,1.572,0,0,0-.459.063,1.088,1.088,0,0,0-.351.174.777.777,0,0,0-.222.264.71.71,0,0,0-.078.327.544.544,0,0,0,.135.378,1.158,1.158,0,0,0,.354.258,3.45,3.45,0,0,0,.5.2q.279.087.57.183t.57.219a2.08,2.08,0,0,1,.5.306,1.436,1.436,0,0,1,.354.441,1.346,1.346,0,0,1,.135.63,2.011,2.011,0,0,1-.153.789,1.726,1.726,0,0,1-.45.627,2.129,2.129,0,0,1-.735.414,3.086,3.086,0,0,1-1,.15,3.153,3.153,0,0,1-1.164-.21,2.916,2.916,0,0,1-.894-.534l.276-.45a.357.357,0,0,1,.12-.129.359.359,0,0,1,.192-.045.409.409,0,0,1,.234.084q.12.084.288.183a2.18,2.18,0,0,0,.408.18,1.9,1.9,0,0,0,.6.081,1.634,1.634,0,0,0,.522-.075,1.072,1.072,0,0,0,.369-.2.825.825,0,0,0,.219-.3.889.889,0,0,0,.072-.354.6.6,0,0,0-.135-.4,1.158,1.158,0,0,0-.354-.273,2.843,2.843,0,0,0-.5-.2q-.282-.084-.576-.18a5.9,5.9,0,0,1-.576-.222,1.978,1.978,0,0,1-.5-.318,1.477,1.477,0,0,1-.354-.468A1.519,1.519,0,0,1-81.2-4.4a1.623,1.623,0,0,1,.147-.678,1.68,1.68,0,0,1,.426-.57,2.1,2.1,0,0,1,.69-.393A2.779,2.779,0,0,1-79-6.192a2.974,2.974,0,0,1,1.1.192,2.509,2.509,0,0,1,.837.528Zm1.53.942h3v1h-3Zm5.724,2.6a1.648,1.648,0,0,0,.624.528,1.775,1.775,0,0,0,.732.15A1.483,1.483,0,0,0-67.461-1.4a2.9,2.9,0,0,0,.441-1.758,2.618,2.618,0,0,0-.39-1.593,1.311,1.311,0,0,0-1.1-.507,1.627,1.627,0,0,0-.873.228,2.569,2.569,0,0,0-.687.648Zm0-3.756a3.165,3.165,0,0,1,.858-.678,2.27,2.27,0,0,1,1.092-.258,2.188,2.188,0,0,1,.963.207,2.028,2.028,0,0,1,.729.594,2.8,2.8,0,0,1,.462.939A4.431,4.431,0,0,1-65.808-3.2a4.637,4.637,0,0,1-.183,1.344,3.126,3.126,0,0,1-.522,1.038,2.342,2.342,0,0,1-.825.669A2.459,2.459,0,0,1-68.43.084a2.393,2.393,0,0,1-.54-.057,1.9,1.9,0,0,1-.453-.165A1.851,1.851,0,0,1-69.8-.4a2.8,2.8,0,0,1-.33-.354l-.054.51a.275.275,0,0,1-.3.246h-.756V-8.856h1.17Zm9.846.3a.648.648,0,0,1-.105.105.238.238,0,0,1-.147.039.349.349,0,0,1-.2-.075,2.646,2.646,0,0,0-.264-.162,2.36,2.36,0,0,0-.384-.162,1.773,1.773,0,0,0-.555-.075,1.764,1.764,0,0,0-.762.156,1.467,1.467,0,0,0-.549.444,2.042,2.042,0,0,0-.333.7,3.5,3.5,0,0,0-.114.93,3.443,3.443,0,0,0,.12.951,2.053,2.053,0,0,0,.342.7,1.446,1.446,0,0,0,.54.432,1.667,1.667,0,0,0,.708.147,1.785,1.785,0,0,0,.624-.093,2.04,2.04,0,0,0,.408-.2,2.789,2.789,0,0,0,.27-.2.339.339,0,0,1,.222-.093.258.258,0,0,1,.222.108l.336.432a2.263,2.263,0,0,1-.471.438,2.683,2.683,0,0,1-.555.294,3.135,3.135,0,0,1-.615.168,3.917,3.917,0,0,1-.651.054,2.7,2.7,0,0,1-1.065-.21,2.413,2.413,0,0,1-.858-.612,2.929,2.929,0,0,1-.573-.987,3.918,3.918,0,0,1-.21-1.329,4,4,0,0,1,.189-1.254A2.791,2.791,0,0,1-64.1-5.3a2.579,2.579,0,0,1,.909-.654,3.048,3.048,0,0,1,1.236-.237,2.945,2.945,0,0,1,1.152.21,2.814,2.814,0,0,1,.888.594Zm1.3.852h3v1h-3Zm6.7,1.062a1.641,1.641,0,0,0,.549-.084,1.084,1.084,0,0,0,.4-.237.984.984,0,0,0,.24-.369,1.34,1.34,0,0,0,.081-.474,1.127,1.127,0,0,0-.321-.843,1.3,1.3,0,0,0-.945-.315,1.287,1.287,0,0,0-.939.315,1.127,1.127,0,0,0-.321.843,1.315,1.315,0,0,0,.081.471.988.988,0,0,0,.24.366,1.117,1.117,0,0,0,.4.24A1.57,1.57,0,0,0-52.236-3.042ZM-50.37.318a.486.486,0,0,0-.12-.345.817.817,0,0,0-.327-.2A2.185,2.185,0,0,0-51.3-.339q-.276-.033-.579-.051T-52.5-.423q-.318-.015-.612-.057a1.719,1.719,0,0,0-.513.378.753.753,0,0,0-.2.522.7.7,0,0,0,.1.36.844.844,0,0,0,.306.291,1.76,1.76,0,0,0,.522.192,3.565,3.565,0,0,0,.753.069,3.461,3.461,0,0,0,.762-.075,1.891,1.891,0,0,0,.555-.21,1,1,0,0,0,.342-.321A.751.751,0,0,0-50.37.318Zm1.188-6.186v.438q0,.216-.27.27l-.654.1a2.11,2.11,0,0,1,.132.393,1.921,1.921,0,0,1,.048.435,1.857,1.857,0,0,1-.174.813,1.847,1.847,0,0,1-.48.621,2.152,2.152,0,0,1-.729.4,2.975,2.975,0,0,1-.927.138,3.184,3.184,0,0,1-.774-.09.9.9,0,0,0-.273.237.436.436,0,0,0-.093.255.336.336,0,0,0,.177.312,1.35,1.35,0,0,0,.462.147,5.349,5.349,0,0,0,.654.057q.369.012.75.039a6.625,6.625,0,0,1,.75.1,2.249,2.249,0,0,1,.654.222,1.261,1.261,0,0,1,.462.42A1.233,1.233,0,0,1-49.29.12a1.635,1.635,0,0,1-.195.768,2.025,2.025,0,0,1-.567.66,2.968,2.968,0,0,1-.906.462,3.905,3.905,0,0,1-1.212.174,4.662,4.662,0,0,1-1.179-.132,2.771,2.771,0,0,1-.834-.354,1.523,1.523,0,0,1-.5-.516A1.234,1.234,0,0,1-54.846.57a1.09,1.09,0,0,1,.276-.753,1.82,1.82,0,0,1,.762-.483,1.065,1.065,0,0,1-.42-.327.89.89,0,0,1-.156-.549.845.845,0,0,1,.048-.273,1.122,1.122,0,0,1,.147-.282,1.454,1.454,0,0,1,.246-.267,1.857,1.857,0,0,1,.339-.228,1.915,1.915,0,0,1-.708-.669,1.815,1.815,0,0,1-.258-.975,1.838,1.838,0,0,1,.174-.81,1.839,1.839,0,0,1,.483-.618,2.177,2.177,0,0,1,.738-.4,3.052,3.052,0,0,1,.939-.138,2.673,2.673,0,0,1,1.362.33Zm2.172.942a2.79,2.79,0,0,1,.708-.942,1.513,1.513,0,0,1,1-.342,1.517,1.517,0,0,1,.375.045.966.966,0,0,1,.309.135l-.078.882a.19.19,0,0,1-.2.162,1.44,1.44,0,0,1-.252-.033,1.867,1.867,0,0,0-.36-.033,1.413,1.413,0,0,0-.5.081,1.163,1.163,0,0,0-.387.24,1.634,1.634,0,0,0-.3.39,3.9,3.9,0,0,0-.246.525V0h-1.17V-6.1h.672a.371.371,0,0,1,.261.069.453.453,0,0,1,.1.243Zm7.1,1.2a2,2,0,0,0-.1-.642,1.458,1.458,0,0,0-.291-.51,1.323,1.323,0,0,0-.468-.336,1.582,1.582,0,0,0-.636-.12,1.563,1.563,0,0,0-1.161.426A2.061,2.061,0,0,0-43.1-3.726ZM-38.94-.87a2.3,2.3,0,0,1-.5.435,2.89,2.89,0,0,1-.6.3A3.639,3.639,0,0,1-40.7.03a4.248,4.248,0,0,1-.669.054,3.137,3.137,0,0,1-1.167-.213,2.594,2.594,0,0,1-.93-.624,2.846,2.846,0,0,1-.612-1.02,4.129,4.129,0,0,1-.219-1.4,3.467,3.467,0,0,1,.2-1.185,2.852,2.852,0,0,1,.567-.957,2.614,2.614,0,0,1,.9-.642,2.96,2.96,0,0,1,1.2-.234,2.818,2.818,0,0,1,1.029.183,2.285,2.285,0,0,1,.813.531,2.457,2.457,0,0,1,.537.858,3.243,3.243,0,0,1,.195,1.164.742.742,0,0,1-.06.363A.244.244,0,0,1-39.132-3h-4a3.293,3.293,0,0,0,.156.951,1.92,1.92,0,0,0,.381.675,1.514,1.514,0,0,0,.579.4,2.036,2.036,0,0,0,.75.132,2.252,2.252,0,0,0,.675-.09,3.273,3.273,0,0,0,.492-.195q.207-.105.348-.195a.48.48,0,0,1,.249-.09.258.258,0,0,1,.222.108Zm5.388-2.856a2,2,0,0,0-.1-.642,1.458,1.458,0,0,0-.291-.51,1.323,1.323,0,0,0-.468-.336,1.582,1.582,0,0,0-.636-.12,1.563,1.563,0,0,0-1.161.426,2.061,2.061,0,0,0-.537,1.182Zm.966,2.856a2.3,2.3,0,0,1-.5.435,2.89,2.89,0,0,1-.6.3,3.639,3.639,0,0,1-.657.168,4.248,4.248,0,0,1-.669.054,3.137,3.137,0,0,1-1.167-.213,2.594,2.594,0,0,1-.93-.624,2.846,2.846,0,0,1-.612-1.02,4.129,4.129,0,0,1-.219-1.4,3.467,3.467,0,0,1,.2-1.185,2.852,2.852,0,0,1,.567-.957,2.614,2.614,0,0,1,.9-.642,2.96,2.96,0,0,1,1.2-.234,2.818,2.818,0,0,1,1.029.183,2.285,2.285,0,0,1,.813.531,2.457,2.457,0,0,1,.537.858A3.243,3.243,0,0,1-32.5-3.456a.742.742,0,0,1-.06.363A.244.244,0,0,1-32.778-3h-4a3.293,3.293,0,0,0,.156.951,1.92,1.92,0,0,0,.381.675,1.514,1.514,0,0,0,.579.4,2.036,2.036,0,0,0,.75.132,2.252,2.252,0,0,0,.675-.09,3.273,3.273,0,0,0,.492-.195q.207-.105.348-.195a.48.48,0,0,1,.249-.09.258.258,0,0,1,.222.108Zm2.448-4.38a4.131,4.131,0,0,1,.414-.384,2.607,2.607,0,0,1,.459-.3,2.458,2.458,0,0,1,.522-.192,2.481,2.481,0,0,1,.6-.069,2.176,2.176,0,0,1,.885.168,1.757,1.757,0,0,1,.639.471,2.04,2.04,0,0,1,.39.729,3.173,3.173,0,0,1,.132.942V0h-1.176V-3.882a1.553,1.553,0,0,0-.3-1.017,1.122,1.122,0,0,0-.918-.363,1.742,1.742,0,0,0-.843.213,2.808,2.808,0,0,0-.729.579V0h-1.17V-6.1h.7a.286.286,0,0,1,.306.234ZM-24.612-4.1h3v1h-3Zm5.97-1.3a5.886,5.886,0,0,1,1.194-.138,3.258,3.258,0,0,1,1.188.2,2.48,2.48,0,0,1,.867.552,2.275,2.275,0,0,1,.528.828,2.952,2.952,0,0,1,.177,1.035,3.112,3.112,0,0,1-.24,1.242,2.831,2.831,0,0,1-.66.954,2.9,2.9,0,0,1-.993.609A3.511,3.511,0,0,1-17.814.1a3.408,3.408,0,0,1-.741-.078,3.823,3.823,0,0,1-.657-.207,3.7,3.7,0,0,1-.567-.3,3.5,3.5,0,0,1-.465-.354l.36-.5a.353.353,0,0,1,.306-.168.548.548,0,0,1,.279.093q.153.093.363.207a2.944,2.944,0,0,0,.5.207,2.236,2.236,0,0,0,.684.093,2.1,2.1,0,0,0,.789-.141,1.646,1.646,0,0,0,.594-.4A1.749,1.749,0,0,0-16-2.07a2.352,2.352,0,0,0,.129-.8,2.035,2.035,0,0,0-.114-.7,1.409,1.409,0,0,0-.342-.534,1.5,1.5,0,0,0-.57-.339,2.466,2.466,0,0,0-.8-.117,4.5,4.5,0,0,0-1.356.228l-.738-.216.7-4.068h4.128v.51a.556.556,0,0,1-.159.411.733.733,0,0,1-.531.159H-18.27ZM-7.308-4.308a6.987,6.987,0,0,1-.243,1.956A4.078,4.078,0,0,1-8.217-.981a2.678,2.678,0,0,1-1,.807A2.911,2.911,0,0,1-10.446.09a2.911,2.911,0,0,1-1.233-.264,2.653,2.653,0,0,1-.993-.807,4.072,4.072,0,0,1-.66-1.371,7.069,7.069,0,0,1-.24-1.956,7.1,7.1,0,0,1,.24-1.959,4.07,4.07,0,0,1,.66-1.374,2.653,2.653,0,0,1,.993-.807,2.911,2.911,0,0,1,1.233-.264,2.911,2.911,0,0,1,1.233.264,2.678,2.678,0,0,1,1,.807,4.075,4.075,0,0,1,.666,1.374A7.019,7.019,0,0,1-7.308-4.308Zm-1.212,0a7.018,7.018,0,0,0-.159-1.626A3.3,3.3,0,0,0-9.1-6.987a1.58,1.58,0,0,0-.615-.567,1.65,1.65,0,0,0-.726-.168,1.65,1.65,0,0,0-.726.168,1.58,1.58,0,0,0-.615.567,3.252,3.252,0,0,0-.423,1.053,7.148,7.148,0,0,0-.156,1.626,7.148,7.148,0,0,0,.156,1.626,3.214,3.214,0,0,0,.423,1.05,1.586,1.586,0,0,0,.615.564,1.65,1.65,0,0,0,.726.168,1.65,1.65,0,0,0,.726-.168A1.586,1.586,0,0,0-9.1-1.632a3.258,3.258,0,0,0,.426-1.05A7.018,7.018,0,0,0-8.52-4.308Zm8.172,0A6.987,6.987,0,0,1-.591-2.352,4.078,4.078,0,0,1-1.257-.981a2.678,2.678,0,0,1-1,.807A2.911,2.911,0,0,1-3.486.09,2.911,2.911,0,0,1-4.719-.174a2.653,2.653,0,0,1-.993-.807,4.072,4.072,0,0,1-.66-1.371,7.069,7.069,0,0,1-.24-1.956,7.1,7.1,0,0,1,.24-1.959,4.07,4.07,0,0,1,.66-1.374,2.653,2.653,0,0,1,.993-.807,2.911,2.911,0,0,1,1.233-.264,2.911,2.911,0,0,1,1.233.264,2.678,2.678,0,0,1,1,.807A4.075,4.075,0,0,1-.591-6.267,7.019,7.019,0,0,1-.348-4.308Zm-1.212,0a7.018,7.018,0,0,0-.159-1.626,3.3,3.3,0,0,0-.426-1.053,1.58,1.58,0,0,0-.615-.567,1.65,1.65,0,0,0-.726-.168,1.65,1.65,0,0,0-.726.168,1.58,1.58,0,0,0-.615.567A3.252,3.252,0,0,0-5.25-5.934a7.148,7.148,0,0,0-.156,1.626A7.148,7.148,0,0,0-5.25-2.682a3.215,3.215,0,0,0,.423,1.05,1.586,1.586,0,0,0,.615.564A1.65,1.65,0,0,0-3.486-.9a1.65,1.65,0,0,0,.726-.168,1.586,1.586,0,0,0,.615-.564,3.258,3.258,0,0,0,.426-1.05A7.018,7.018,0,0,0-1.56-4.308Z" transform="translate(-35.755 -71)" fill="#c7254e"/>
    </g>
    <path id="Path_512" data-name="Path 512" d="M7.29-1.782A6.057,6.057,0,0,0,8.717-1.93a6.009,6.009,0,0,0,1.156-.41V-4.707H8.244a.509.509,0,0,1-.369-.131.427.427,0,0,1-.135-.319V-6.525h4.329V-1.26a7.15,7.15,0,0,1-1.03.625A6.581,6.581,0,0,1,9.9-.2,8.755,8.755,0,0,1,8.6.058,12.23,12.23,0,0,1,7.1.144a6.787,6.787,0,0,1-2.619-.5,6.222,6.222,0,0,1-2.07-1.377A6.27,6.27,0,0,1,1.048-3.834a7.121,7.121,0,0,1-.49-2.673A7.351,7.351,0,0,1,1.035-9.2,6.071,6.071,0,0,1,2.39-11.3a6.047,6.047,0,0,1,2.128-1.368,7.7,7.7,0,0,1,2.808-.486,7.321,7.321,0,0,1,2.758.472,6.362,6.362,0,0,1,1.976,1.229l-.7,1.1a.624.624,0,0,1-.549.333.817.817,0,0,1-.441-.144q-.288-.171-.589-.342a3.988,3.988,0,0,0-.666-.3,5.429,5.429,0,0,0-.819-.207A6.03,6.03,0,0,0,7.245-11.1a4.492,4.492,0,0,0-1.741.324,3.684,3.684,0,0,0-1.328.927A4.178,4.178,0,0,0,3.33-8.4a5.678,5.678,0,0,0-.3,1.89,5.907,5.907,0,0,0,.315,2A4.2,4.2,0,0,0,4.23-3.024,3.8,3.8,0,0,0,5.58-2.1,4.484,4.484,0,0,0,7.29-1.782ZM14.2,0V-9.234h1.305a.7.7,0,0,1,.477.126.725.725,0,0,1,.18.432L16.3-7.56A4.387,4.387,0,0,1,17.46-8.91,2.443,2.443,0,0,1,18.954-9.4a1.931,1.931,0,0,1,1.134.315L19.8-7.425a.344.344,0,0,1-.117.229.4.4,0,0,1-.243.068,1.516,1.516,0,0,1-.369-.063,2.47,2.47,0,0,0-.621-.063,1.885,1.885,0,0,0-1.188.382,2.945,2.945,0,0,0-.837,1.121V0ZM25.371-9.378a4.484,4.484,0,0,1,1.607.279,3.518,3.518,0,0,1,1.264.814A3.721,3.721,0,0,1,29.07-6.97a4.962,4.962,0,0,1,.3,1.777,3.217,3.217,0,0,1-.022.419.67.67,0,0,1-.081.261.328.328,0,0,1-.157.135.671.671,0,0,1-.252.041H23.148a3.18,3.18,0,0,0,.765,2.088,2.384,2.384,0,0,0,1.764.666,3.055,3.055,0,0,0,.932-.126,4.368,4.368,0,0,0,.684-.279q.293-.153.513-.279a.861.861,0,0,1,.428-.126.481.481,0,0,1,.234.054.517.517,0,0,1,.171.153l.648.81a3.7,3.7,0,0,1-.828.725,4.644,4.644,0,0,1-.958.468,5.239,5.239,0,0,1-1.017.248,7.282,7.282,0,0,1-1,.072,4.933,4.933,0,0,1-1.791-.319,4.009,4.009,0,0,1-1.44-.945,4.434,4.434,0,0,1-.963-1.548,5.991,5.991,0,0,1-.351-2.137,5.111,5.111,0,0,1,.306-1.778,4.274,4.274,0,0,1,.878-1.449,4.131,4.131,0,0,1,1.4-.976A4.6,4.6,0,0,1,25.371-9.378Zm.045,1.593a2.056,2.056,0,0,0-1.521.549,2.708,2.708,0,0,0-.7,1.557h4.176a2.77,2.77,0,0,0-.117-.814,1.879,1.879,0,0,0-.36-.671,1.7,1.7,0,0,0-.612-.454A2.084,2.084,0,0,0,25.416-7.785Zm9.576-1.593A4.484,4.484,0,0,1,36.6-9.1a3.518,3.518,0,0,1,1.264.814,3.721,3.721,0,0,1,.828,1.314,4.962,4.962,0,0,1,.3,1.777,3.217,3.217,0,0,1-.022.419.67.67,0,0,1-.081.261.328.328,0,0,1-.157.135.671.671,0,0,1-.252.041H32.769a3.18,3.18,0,0,0,.765,2.088,2.384,2.384,0,0,0,1.764.666,3.055,3.055,0,0,0,.931-.126,4.368,4.368,0,0,0,.684-.279q.292-.153.513-.279a.861.861,0,0,1,.427-.126.482.482,0,0,1,.234.054.517.517,0,0,1,.171.153l.648.81a3.7,3.7,0,0,1-.828.725,4.644,4.644,0,0,1-.958.468A5.239,5.239,0,0,1,36.1.063a7.282,7.282,0,0,1-1,.072,4.933,4.933,0,0,1-1.791-.319,4.009,4.009,0,0,1-1.44-.945,4.434,4.434,0,0,1-.963-1.548,5.991,5.991,0,0,1-.351-2.137,5.111,5.111,0,0,1,.306-1.778,4.274,4.274,0,0,1,.878-1.449,4.131,4.131,0,0,1,1.395-.976A4.6,4.6,0,0,1,34.992-9.378Zm.045,1.593a2.056,2.056,0,0,0-1.521.549,2.708,2.708,0,0,0-.7,1.557H36.99a2.77,2.77,0,0,0-.117-.814,1.879,1.879,0,0,0-.36-.671,1.7,1.7,0,0,0-.612-.454A2.084,2.084,0,0,0,35.037-7.785ZM40.8,0V-9.234h1.359a.546.546,0,0,1,.567.4l.153.729a5.064,5.064,0,0,1,.59-.522,4.116,4.116,0,0,1,.657-.405,3.347,3.347,0,0,1,.743-.261,3.9,3.9,0,0,1,.864-.09,3.31,3.31,0,0,1,1.341.257,2.65,2.65,0,0,1,.977.72,3.165,3.165,0,0,1,.594,1.107,4.7,4.7,0,0,1,.2,1.418V0H46.62V-5.877a1.972,1.972,0,0,0-.392-1.31,1.451,1.451,0,0,0-1.174-.464,2.315,2.315,0,0,0-1.08.261,3.87,3.87,0,0,0-.954.711V0Z" transform="translate(1085 625)" fill="#141823"/>
    <g id="COLOR-GROUP-GREEN" transform="translate(1067 653)">
      <rect id="Rectangle_321" data-name="Rectangle 321" width="94" height="70" transform="translate(111.5 30)" fill="#30ba78"/>
      <path id="Rectangle_324" data-name="Rectangle 324" d="M0,0H84A10,10,0,0,1,94,10V60A10,10,0,0,1,84,70H0a0,0,0,0,1,0,0V0A0,0,0,0,1,0,0Z" transform="translate(205 30)" fill="#139448"/>
      <g transform="matrix(1, 0, 0, 1, -14, -41.16)" filter="url(#Path_496)">
        <path id="Path_496-2" data-name="Path 496" d="M0,0H125.106A14.894,14.894,0,0,1,140,14.894V89.362a14.894,14.894,0,0,1-14.894,14.894H0Z" transform="translate(149 158.29) rotate(180)" fill="#e4f6ee"/>
      </g>
      <g transform="matrix(1, 0, 0, 1, -14, -41.16)" filter="url(#Path_507)">
        <path id="Path_507-2" data-name="Path 507" d="M2.69-1.85H5.62v-8.43q0-.49.03-1.03L3.57-9.57a.738.738,0,0,1-.265.15.93.93,0,0,1-.265.04.785.785,0,0,1-.365-.085A.681.681,0,0,1,2.43-9.66l-.78-1.07,4.41-3.75H8.09V-1.85h2.6V0h-8ZM22.7-7.23A11.848,11.848,0,0,1,22.3-3.945a6.729,6.729,0,0,1-1.12,2.3,4.529,4.529,0,0,1-1.69,1.355,5.009,5.009,0,0,1-2.1.445,4.942,4.942,0,0,1-2.1-.445A4.51,4.51,0,0,1,13.61-1.64a6.721,6.721,0,0,1-1.11-2.3,11.988,11.988,0,0,1-.4-3.285,11.976,11.976,0,0,1,.4-3.29,6.724,6.724,0,0,1,1.11-2.3,4.51,4.51,0,0,1,1.675-1.355,4.942,4.942,0,0,1,2.1-.445,5.009,5.009,0,0,1,2.1.445,4.529,4.529,0,0,1,1.69,1.355,6.733,6.733,0,0,1,1.12,2.3A11.836,11.836,0,0,1,22.7-7.23Zm-2.55,0a12.226,12.226,0,0,0-.23-2.6,5.231,5.231,0,0,0-.615-1.64,2.244,2.244,0,0,0-.885-.855,2.336,2.336,0,0,0-1.04-.245,2.284,2.284,0,0,0-1.025.245,2.224,2.224,0,0,0-.875.855,5.241,5.241,0,0,0-.605,1.64,12.489,12.489,0,0,0-.225,2.6,12.489,12.489,0,0,0,.225,2.6,5.241,5.241,0,0,0,.605,1.64,2.224,2.224,0,0,0,.875.855,2.284,2.284,0,0,0,1.025.245,2.336,2.336,0,0,0,1.04-.245,2.244,2.244,0,0,0,.885-.855,5.231,5.231,0,0,0,.615-1.64A12.226,12.226,0,0,0,20.15-7.23Zm14.15,0A11.848,11.848,0,0,1,33.9-3.945a6.729,6.729,0,0,1-1.12,2.3,4.529,4.529,0,0,1-1.69,1.355,5.009,5.009,0,0,1-2.1.445,4.942,4.942,0,0,1-2.1-.445A4.51,4.51,0,0,1,25.21-1.64a6.721,6.721,0,0,1-1.11-2.3,11.988,11.988,0,0,1-.4-3.285,11.976,11.976,0,0,1,.4-3.29,6.724,6.724,0,0,1,1.11-2.3,4.51,4.51,0,0,1,1.675-1.355,4.942,4.942,0,0,1,2.1-.445,5.009,5.009,0,0,1,2.1.445,4.529,4.529,0,0,1,1.69,1.355,6.733,6.733,0,0,1,1.12,2.3A11.836,11.836,0,0,1,34.3-7.23Zm-2.55,0a12.226,12.226,0,0,0-.23-2.6,5.231,5.231,0,0,0-.615-1.64,2.244,2.244,0,0,0-.885-.855,2.336,2.336,0,0,0-1.04-.245,2.284,2.284,0,0,0-1.025.245,2.224,2.224,0,0,0-.875.855,5.241,5.241,0,0,0-.605,1.64,12.489,12.489,0,0,0-.225,2.6,12.489,12.489,0,0,0,.225,2.6,5.241,5.241,0,0,0,.605,1.64,2.224,2.224,0,0,0,.875.855,2.284,2.284,0,0,0,1.025.245,2.336,2.336,0,0,0,1.04-.245,2.244,2.244,0,0,0,.885-.855,5.231,5.231,0,0,0,.615-1.64A12.226,12.226,0,0,0,31.75-7.23Z" transform="translate(63 92.16)" fill="#141823"/>
      </g>
      <g transform="matrix(1, 0, 0, 1, -14, -41.16)" filter="url(#Path_506)">
        <path id="Path_506-2" data-name="Path 506" d="M6.056-3.544,5.3,0H4.976a.257.257,0,0,1-.184-.068.257.257,0,0,1-.072-.2.38.38,0,0,1,.008-.088l.688-3.192H3.032L2.344-.32a.411.411,0,0,1-.136.248A.376.376,0,0,1,1.976,0H1.64l.752-3.544H.928A.271.271,0,0,1,.752-3.6a.231.231,0,0,1-.064-.188V-3.86A.672.672,0,0,1,.7-3.976L.728-4.1H2.472l.656-3.112H1.1l.048-.3q.032-.264.352-.264h1.7l.7-3.232a.369.369,0,0,1,.132-.228.379.379,0,0,1,.236-.076h.336l-.76,3.536H6.232l.76-3.536h.336a.216.216,0,0,1,.248.24.426.426,0,0,1-.008.1l-.7,3.2h1.8l-.048.3q-.04.264-.36.264H6.792L6.136-4.1h1.8q.24,0,.24.208l-.032.352ZM3.112-4.1H5.5l.656-3.112H3.768ZM17.744-11.32v.68h-5.96v4.576h4.96V-5.4h-4.96V-.68h5.96V0H10.96V-11.32Zm7.864,7.464H27.68v.416a.189.189,0,0,1-.052.14.224.224,0,0,1-.164.052H25.608V0H24.92V-3.248H19.584A.285.285,0,0,1,19.4-3.3a.264.264,0,0,1-.088-.14l-.072-.376,5.688-7.52h.68ZM24.92-9.784q0-.136.008-.288t.032-.312L20.072-3.856H24.92ZM36.48-11.32v.68H30.52v4.76h5.16v.68H30.52V0H29.7V-11.32Zm5.712,4.552a3.671,3.671,0,0,1,1.344.24,3.1,3.1,0,0,1,1.06.676,3.089,3.089,0,0,1,.7,1.056,3.656,3.656,0,0,1,.252,1.388,3.576,3.576,0,0,1-.276,1.416A3.355,3.355,0,0,1,44.5-.872a3.485,3.485,0,0,1-1.18.736,4.188,4.188,0,0,1-1.512.264A3.951,3.951,0,0,1,40.36-.128a3.144,3.144,0,0,1-1.124-.736,3.287,3.287,0,0,1-.724-1.172A4.485,4.485,0,0,1,38.256-3.6a4.082,4.082,0,0,1,.336-1.5,8.774,8.774,0,0,1,1.1-1.876l3.088-4.16a.475.475,0,0,1,.408-.184h.672L40.488-6.912q-.248.328-.456.616t-.376.568a3.384,3.384,0,0,1,1.12-.764A3.576,3.576,0,0,1,42.192-6.768ZM39-3.416a3.377,3.377,0,0,0,.2,1.168,2.708,2.708,0,0,0,.556.924,2.48,2.48,0,0,0,.88.6A3.019,3.019,0,0,0,41.8-.5,3.379,3.379,0,0,0,43.04-.72a2.764,2.764,0,0,0,.94-.6,2.582,2.582,0,0,0,.6-.9,3.062,3.062,0,0,0,.208-1.14,3.207,3.207,0,0,0-.2-1.172A2.484,2.484,0,0,0,44-5.42a2.552,2.552,0,0,0-.884-.56,3.155,3.155,0,0,0-1.136-.2,3.106,3.106,0,0,0-1.26.244,3,3,0,0,0-.94.632,2.661,2.661,0,0,0-.584.884A2.655,2.655,0,0,0,39-3.416Zm15.912-7.9v.68h-5.96v4.576h4.96V-5.4h-4.96V-.68h5.96V0H48.128V-11.32Zm9.456,0v.68h-5.96v4.576h4.96V-5.4h-4.96V-.68h5.96V0H57.584V-11.32Z" transform="translate(44.74 125.09)" fill="#141823"/>
      </g>
      <text id="_500" data-name="500" transform="translate(147 56)" fill="#141823" font-size="14" font-family="Lato-Bold, Lato" font-weight="700"><tspan x="0" y="0">500</tspan></text>
      <text id="_38BA78" data-name="#38BA78" transform="translate(135 77.971)" fill="#141823" font-size="11.6" font-family="Lato-Light, Lato" font-weight="300"><tspan x="0" y="0">#38BA78</tspan></text>
      <text id="_900" data-name="900" transform="translate(241 56)" fill="#141823" font-size="14" font-family="Lato-Bold, Lato" font-weight="700"><tspan x="0" y="0">900</tspan></text>
      <text id="_139448" data-name="#139448" transform="translate(229 77.971)" fill="#141823" font-size="11.6" font-family="Lato-Light, Lato" font-weight="300"><tspan x="0" y="0">#139448</tspan></text>
    </g>
    <g id="copied" transform="translate(373 -24)">
      <g id="Group_206" data-name="Group 206" transform="translate(730 660)" opacity="0.999">
        <rect id="Rectangle_17" data-name="Rectangle 17" width="63" height="24.135" rx="5" transform="translate(0 0)" fill="#141823"/>
        <rect id="Rectangle_18" data-name="Rectangle 18" width="9" height="9" transform="translate(31.364 17.272) rotate(45)" fill="#141823"/>
      </g>
      <path id="Path_513" data-name="Path 513" d="M8.288-2.072a.281.281,0,0,1,.2.091l.532.581A4.291,4.291,0,0,1,7.529-.287a5.1,5.1,0,0,1-2.117.4A4.985,4.985,0,0,1,3.444-.263a4.311,4.311,0,0,1-1.5-1.05A4.746,4.746,0,0,1,.973-2.933,6.053,6.053,0,0,1,.63-5.012,5.69,5.69,0,0,1,1-7.091,4.75,4.75,0,0,1,2.03-8.715,4.62,4.62,0,0,1,3.622-9.768a5.421,5.421,0,0,1,2.048-.375A4.829,4.829,0,0,1,7.577-9.8,4.821,4.821,0,0,1,9-8.869l-.441.623a.481.481,0,0,1-.112.116.308.308,0,0,1-.182.045.354.354,0,0,1-.193-.066q-.1-.067-.242-.165T7.5-8.526a2.883,2.883,0,0,0-.448-.21,3.7,3.7,0,0,0-.6-.165,4.19,4.19,0,0,0-.791-.066,3.819,3.819,0,0,0-1.474.276A3.3,3.3,0,0,0,3.038-7.9a3.583,3.583,0,0,0-.752,1.246,4.751,4.751,0,0,0-.27,1.645,4.839,4.839,0,0,0,.27,1.673A3.694,3.694,0,0,0,3.02-2.1a3.1,3.1,0,0,0,1.1.773A3.524,3.524,0,0,0,5.5-1.057a5.571,5.571,0,0,0,.8-.053,3.306,3.306,0,0,0,.661-.164,2.8,2.8,0,0,0,.567-.284,4.434,4.434,0,0,0,.529-.409A.356.356,0,0,1,8.288-2.072ZM13.482-7.2a3.642,3.642,0,0,1,1.4.259,2.959,2.959,0,0,1,1.064.735,3.254,3.254,0,0,1,.672,1.151,4.579,4.579,0,0,1,.234,1.509,4.57,4.57,0,0,1-.234,1.512A3.259,3.259,0,0,1,15.95-.889a2.922,2.922,0,0,1-1.064.732,3.686,3.686,0,0,1-1.4.256,3.686,3.686,0,0,1-1.4-.256,2.956,2.956,0,0,1-1.068-.732,3.273,3.273,0,0,1-.679-1.148,4.509,4.509,0,0,1-.238-1.512,4.517,4.517,0,0,1,.238-1.509,3.267,3.267,0,0,1,.679-1.151,2.993,2.993,0,0,1,1.068-.735A3.642,3.642,0,0,1,13.482-7.2Zm0,6.328a1.82,1.82,0,0,0,1.568-.7,3.257,3.257,0,0,0,.518-1.963,3.287,3.287,0,0,0-.518-1.974,1.817,1.817,0,0,0-1.568-.707,2.176,2.176,0,0,0-.924.182,1.729,1.729,0,0,0-.655.525,2.332,2.332,0,0,0-.392.843,4.521,4.521,0,0,0-.13,1.131,4.48,4.48,0,0,0,.13,1.127,2.3,2.3,0,0,0,.392.836,1.743,1.743,0,0,0,.655.522A2.176,2.176,0,0,0,13.482-.875ZM18.4,2.4V-7.091h.742a.318.318,0,0,1,.336.259l.1.84a3.786,3.786,0,0,1,1.039-.889,2.655,2.655,0,0,1,1.347-.336,2.56,2.56,0,0,1,1.106.234,2.28,2.28,0,0,1,.847.693,3.323,3.323,0,0,1,.539,1.138,5.838,5.838,0,0,1,.189,1.561,4.893,4.893,0,0,1-.21,1.46,3.554,3.554,0,0,1-.6,1.169,2.811,2.811,0,0,1-.962.777A2.847,2.847,0,0,1,21.588.1a2.644,2.644,0,0,1-1.124-.217,2.532,2.532,0,0,1-.823-.616V2.4Zm3.157-8.61a2.007,2.007,0,0,0-1.068.28,3.077,3.077,0,0,0-.844.791v3.43a2,2,0,0,0,.753.651,2.154,2.154,0,0,0,.913.189,1.787,1.787,0,0,0,1.519-.707,3.3,3.3,0,0,0,.532-2.016,5.03,5.03,0,0,0-.123-1.19,2.327,2.327,0,0,0-.354-.815,1.375,1.375,0,0,0-.567-.465A1.886,1.886,0,0,0,21.553-6.209Zm5.957-.882V0H26.264V-7.091Zm.28-2.226a.793.793,0,0,1-.073.339.978.978,0,0,1-.2.28.911.911,0,0,1-.284.192.851.851,0,0,1-.343.07.826.826,0,0,1-.34-.07.923.923,0,0,1-.28-.192.923.923,0,0,1-.193-.28.826.826,0,0,1-.07-.339.876.876,0,0,1,.07-.347.9.9,0,0,1,.193-.287.923.923,0,0,1,.28-.193.826.826,0,0,1,.34-.07.851.851,0,0,1,.343.07.911.911,0,0,1,.284.193.949.949,0,0,1,.2.287A.84.84,0,0,1,27.79-9.317ZM32.515-7.2a3.165,3.165,0,0,1,1.176.214,2.64,2.64,0,0,1,.931.616,2.808,2.808,0,0,1,.612.994,3.84,3.84,0,0,1,.221,1.348.813.813,0,0,1-.063.392.262.262,0,0,1-.238.1H30.436a3.915,3.915,0,0,0,.182,1.169,2.39,2.39,0,0,0,.462.829,1.851,1.851,0,0,0,.7.5,2.4,2.4,0,0,0,.91.164A2.67,2.67,0,0,0,33.5-.99a3.847,3.847,0,0,0,.584-.235,4.458,4.458,0,0,0,.41-.234.543.543,0,0,1,.284-.109.274.274,0,0,1,.238.119l.35.455a2.367,2.367,0,0,1-.553.487,3.443,3.443,0,0,1-.689.339,4.379,4.379,0,0,1-.76.2A4.639,4.639,0,0,1,32.585.1,3.606,3.606,0,0,1,31.231-.15,2.973,2.973,0,0,1,30.16-.878a3.34,3.34,0,0,1-.7-1.186A4.825,4.825,0,0,1,29.2-3.689a4.132,4.132,0,0,1,.228-1.386,3.267,3.267,0,0,1,.654-1.116,3.013,3.013,0,0,1,1.043-.742A3.424,3.424,0,0,1,32.515-7.2Zm.028.917a1.913,1.913,0,0,0-1.421.522,2.455,2.455,0,0,0-.644,1.445h3.857a2.523,2.523,0,0,0-.119-.794,1.77,1.77,0,0,0-.35-.623,1.567,1.567,0,0,0-.563-.406A1.9,1.9,0,0,0,32.543-6.286ZM42.035,0A.318.318,0,0,1,41.7-.259l-.112-.861a3.733,3.733,0,0,1-1.039.885A2.663,2.663,0,0,1,39.207.1,2.56,2.56,0,0,1,38.1-.137a2.293,2.293,0,0,1-.847-.689,3.284,3.284,0,0,1-.539-1.134,5.838,5.838,0,0,1-.189-1.561,4.893,4.893,0,0,1,.21-1.459,3.557,3.557,0,0,1,.605-1.173,2.838,2.838,0,0,1,.963-.78,2.841,2.841,0,0,1,1.288-.284A2.566,2.566,0,0,1,40.7-7a2.669,2.669,0,0,1,.826.62v-3.934h1.246V0ZM39.62-.91a2.007,2.007,0,0,0,1.068-.28,3.077,3.077,0,0,0,.843-.791v-3.43a1.971,1.971,0,0,0-.752-.647,2.172,2.172,0,0,0-.907-.186,1.8,1.8,0,0,0-1.526.707,3.3,3.3,0,0,0-.532,2.016,5.126,5.126,0,0,0,.119,1.187,2.283,2.283,0,0,0,.35.812,1.375,1.375,0,0,0,.567.466A1.9,1.9,0,0,0,39.62-.91Zm7.238-9.121v4q0,.315-.01.616t-.032.606q-.021.3-.052.623T46.69-3.5h-.847q-.042-.364-.073-.683t-.053-.623q-.021-.3-.031-.606t-.011-.616v-4ZM45.374-.77a.89.89,0,0,1,.066-.343.88.88,0,0,1,.182-.28.856.856,0,0,1,.276-.189.851.851,0,0,1,.343-.07.851.851,0,0,1,.343.07.9.9,0,0,1,.28.189.851.851,0,0,1,.186.28.89.89,0,0,1,.067.343.882.882,0,0,1-.067.346.86.86,0,0,1-.186.277.851.851,0,0,1-.28.185A.89.89,0,0,1,46.242.1.89.89,0,0,1,45.9.038a.812.812,0,0,1-.276-.185.89.89,0,0,1-.182-.277A.882.882,0,0,1,45.374-.77Z" transform="translate(737 677.5)" fill="#fff"/>
    </g>
  </g>
</svg>
